\relax 
\ifx\hyper@anchor\@undefined
\global \let \oldcontentsline\contentsline
\gdef \contentsline#1#2#3#4{\oldcontentsline{#1}{#2}{#3}}
\global \let \oldnewlabel\newlabel
\gdef \newlabel#1#2{\newlabelxx{#1}#2}
\gdef \newlabelxx#1#2#3#4#5#6{\oldnewlabel{#1}{{#2}{#3}}}
\AtEndDocument{\let \contentsline\oldcontentsline
\let \newlabel\oldnewlabel}
\else
\global \let \hyper@last\relax 
\fi

\@writefile{toc}{\beamer@endinputifotherversion {3.10pt}}
\@writefile{nav}{\beamer@endinputifotherversion {3.10pt}}
\@writefile{toc}{\beamer@sectionintoc {1}{\scshape  Introduction}{1}{0}{1}}
\@writefile{nav}{\headcommand {\sectionentry {1}{\scshape  Introduction}{1}{\scshape  Introduction}{0}}}
\@writefile{nav}{\headcommand {\beamer@sectionpages {1}{0}}}
\@writefile{nav}{\headcommand {\beamer@subsectionpages {1}{0}}}
\@writefile{nav}{\headcommand {\slideentry {1}{0}{1}{1/1}{}{0}}}
\@writefile{nav}{\headcommand {\beamer@framepages {1}{1}}}
\@writefile{toc}{\beamer@subsectionintoc {1}{1}{Objective}{2}{0}{1}}
\@writefile{nav}{\headcommand {\beamer@subsectionentry {0}{1}{1}{2}{Objective}}\headcommand {\beamer@subsectionpages {1}{1}}}
\@writefile{nav}{\headcommand {\slideentry {1}{1}{1}{2/8}{Objective}{0}}}
\@writefile{nav}{\headcommand {\beamer@framepages {2}{8}}}
\@writefile{toc}{\beamer@sectionintoc {2}{Driver Mutation Detection}{9}{0}{2}}
\@writefile{nav}{\headcommand {\sectionentry {2}{Driver Mutation Detection}{9}{Driver Mutation Detection}{0}}}
\@writefile{nav}{\headcommand {\beamer@sectionpages {1}{8}}}
\@writefile{nav}{\headcommand {\beamer@subsectionpages {2}{8}}}
\@writefile{toc}{\beamer@subsectionintoc {2}{1}{Driver Mutation Detection}{9}{0}{2}}
\@writefile{nav}{\headcommand {\beamer@subsectionentry {0}{2}{1}{9}{Driver Mutation Detection}}\headcommand {\beamer@subsectionpages {9}{8}}}
\@writefile{nav}{\headcommand {\slideentry {2}{1}{1}{9/15}{Driver Mutation Detection}{0}}}
\@writefile{nav}{\headcommand {\beamer@framepages {9}{15}}}
\@writefile{nav}{\headcommand {\slideentry {2}{1}{2}{16/18}{Driver Mutation Detection}{0}}}
\@writefile{nav}{\headcommand {\beamer@framepages {16}{18}}}
\@writefile{nav}{\headcommand {\slideentry {2}{1}{3}{19/19}{Driver Mutation Detection}{0}}}
\@writefile{nav}{\headcommand {\beamer@framepages {19}{19}}}
\@writefile{nav}{\headcommand {\slideentry {2}{1}{4}{20/20}{Driver Mutation Detection}{0}}}
\@writefile{nav}{\headcommand {\beamer@framepages {20}{20}}}
\@writefile{nav}{\headcommand {\slideentry {2}{1}{5}{21/21}{Driver Mutation Detection}{0}}}
\@writefile{nav}{\headcommand {\beamer@framepages {21}{21}}}
\@writefile{nav}{\headcommand {\slideentry {2}{1}{6}{22/22}{Driver Mutation Detection}{0}}}
\@writefile{nav}{\headcommand {\beamer@framepages {22}{22}}}
\@writefile{toc}{\beamer@sectionintoc {3}{Bio-marker prediction}{23}{0}{3}}
\@writefile{nav}{\headcommand {\sectionentry {3}{Bio-marker prediction}{23}{Bio-marker prediction}{0}}}
\@writefile{nav}{\headcommand {\beamer@sectionpages {9}{22}}}
\@writefile{nav}{\headcommand {\beamer@subsectionpages {9}{22}}}
\@writefile{toc}{\beamer@subsectionintoc {3}{1}{Introduction}{23}{0}{3}}
\@writefile{nav}{\headcommand {\beamer@subsectionentry {0}{3}{1}{23}{Introduction}}\headcommand {\beamer@subsectionpages {23}{22}}}
\@writefile{nav}{\headcommand {\slideentry {3}{1}{1}{23/23}{Introduction}{0}}}
\@writefile{nav}{\headcommand {\beamer@framepages {23}{23}}}
\newlabel{Schema of a DNA microarray design}{{2}{24}{Introduction\relax }{}{}}
\@writefile{snm}{\beamer@slide {Schema of a DNA microarray design}{24}}
\@writefile{nav}{\headcommand {\slideentry {3}{1}{2}{24/24}{Introduction}{0}}}
\@writefile{nav}{\headcommand {\beamer@framepages {24}{24}}}
\@writefile{nav}{\headcommand {\slideentry {3}{1}{3}{25/27}{Introduction}{0}}}
\@writefile{nav}{\headcommand {\beamer@framepages {25}{27}}}
\@writefile{toc}{\beamer@subsectionintoc {3}{2}{Preprocessing}{28}{0}{3}}
\@writefile{nav}{\headcommand {\beamer@subsectionentry {0}{3}{2}{28}{Preprocessing}}\headcommand {\beamer@subsectionpages {23}{27}}}
\@writefile{nav}{\headcommand {\slideentry {3}{2}{1}{28/28}{Preprocessing}{0}}}
\@writefile{nav}{\headcommand {\beamer@framepages {28}{28}}}
\@writefile{toc}{\beamer@subsectionintoc {3}{3}{BG correction}{29}{0}{3}}
\@writefile{nav}{\headcommand {\beamer@subsectionentry {0}{3}{3}{29}{BG correction}}\headcommand {\beamer@subsectionpages {28}{28}}}
\@writefile{nav}{\headcommand {\slideentry {3}{3}{1}{29/29}{BG correction}{0}}}
\@writefile{nav}{\headcommand {\beamer@framepages {29}{29}}}
\@writefile{nav}{\headcommand {\slideentry {3}{3}{2}{30/33}{BG correction}{0}}}
\@writefile{nav}{\headcommand {\beamer@framepages {30}{33}}}
\@writefile{nav}{\headcommand {\slideentry {3}{3}{3}{34/34}{BG correction}{0}}}
\@writefile{nav}{\headcommand {\beamer@framepages {34}{34}}}
\@writefile{nav}{\headcommand {\slideentry {3}{3}{3}{34/35}{BG correction}{0}}}
\@writefile{nav}{\headcommand {\beamer@framepages {34}{35}}}
\@writefile{toc}{\beamer@subsectionintoc {3}{4}{Normalization}{36}{0}{3}}
\@writefile{nav}{\headcommand {\beamer@subsectionentry {0}{3}{4}{36}{Normalization}}\headcommand {\beamer@subsectionpages {29}{35}}}
\@writefile{nav}{\headcommand {\slideentry {3}{4}{1}{36/36}{Normalization}{0}}}
\@writefile{nav}{\headcommand {\beamer@framepages {36}{36}}}
\@writefile{nav}{\headcommand {\slideentry {3}{4}{2}{37/39}{Normalization}{0}}}
\@writefile{nav}{\headcommand {\beamer@framepages {37}{39}}}
\@writefile{nav}{\headcommand {\slideentry {3}{4}{3}{40/41}{Normalization}{0}}}
\@writefile{nav}{\headcommand {\beamer@framepages {40}{41}}}
\@writefile{nav}{\headcommand {\slideentry {3}{4}{4}{42/42}{Normalization}{0}}}
\@writefile{nav}{\headcommand {\beamer@framepages {42}{42}}}
\@writefile{toc}{\beamer@subsectionintoc {3}{5}{DE}{43}{0}{3}}
\@writefile{nav}{\headcommand {\beamer@subsectionentry {0}{3}{5}{43}{DE}}\headcommand {\beamer@subsectionpages {36}{42}}}
\@writefile{nav}{\headcommand {\slideentry {3}{5}{1}{43/43}{DE}{0}}}
\@writefile{nav}{\headcommand {\beamer@framepages {43}{43}}}
\@writefile{nav}{\headcommand {\slideentry {3}{5}{2}{44/44}{DE}{0}}}
\@writefile{nav}{\headcommand {\beamer@framepages {44}{44}}}
\@writefile{nav}{\headcommand {\slideentry {3}{5}{2}{44/45}{DE}{0}}}
\@writefile{nav}{\headcommand {\beamer@framepages {44}{45}}}
\@writefile{nav}{\headcommand {\slideentry {3}{5}{2}{44/46}{DE}{0}}}
\@writefile{nav}{\headcommand {\beamer@framepages {44}{46}}}
\@writefile{toc}{\beamer@subsectionintoc {3}{6}{Correspondence Analysis}{47}{0}{3}}
\@writefile{nav}{\headcommand {\beamer@subsectionentry {0}{3}{6}{47}{Correspondence Analysis}}\headcommand {\beamer@subsectionpages {43}{46}}}
\@writefile{nav}{\headcommand {\slideentry {3}{6}{1}{47/47}{Correspondence Analysis}{0}}}
\@writefile{nav}{\headcommand {\beamer@framepages {47}{47}}}
\@writefile{nav}{\headcommand {\slideentry {3}{6}{2}{48/51}{Correspondence Analysis}{0}}}
\@writefile{nav}{\headcommand {\beamer@framepages {48}{51}}}
\@writefile{nav}{\headcommand {\slideentry {3}{6}{3}{52/56}{Correspondence Analysis}{0}}}
\@writefile{nav}{\headcommand {\beamer@framepages {52}{56}}}
\@writefile{nav}{\headcommand {\slideentry {3}{6}{4}{57/60}{Correspondence Analysis}{0}}}
\@writefile{nav}{\headcommand {\beamer@framepages {57}{60}}}
\@writefile{nav}{\headcommand {\slideentry {3}{6}{5}{61/61}{Correspondence Analysis}{0}}}
\@writefile{nav}{\headcommand {\beamer@framepages {61}{61}}}
\@writefile{nav}{\headcommand {\slideentry {3}{6}{6}{62/62}{Correspondence Analysis}{0}}}
\@writefile{nav}{\headcommand {\beamer@framepages {62}{62}}}
\@writefile{nav}{\headcommand {\slideentry {3}{6}{7}{63/67}{Correspondence Analysis}{0}}}
\@writefile{nav}{\headcommand {\beamer@framepages {63}{67}}}
\@writefile{nav}{\headcommand {\slideentry {3}{6}{8}{68/68}{Correspondence Analysis}{0}}}
\@writefile{nav}{\headcommand {\beamer@framepages {68}{68}}}
\@writefile{toc}{\beamer@subsectionintoc {3}{7}{Feature Extraction \& Classification}{69}{0}{3}}
\@writefile{nav}{\headcommand {\beamer@subsectionentry {0}{3}{7}{69}{Feature Extraction \& Classification}}\headcommand {\beamer@subsectionpages {47}{68}}}
\@writefile{nav}{\headcommand {\slideentry {3}{7}{1}{69/69}{Feature Extraction \& Classification}{0}}}
\@writefile{nav}{\headcommand {\beamer@framepages {69}{69}}}
\@writefile{nav}{\headcommand {\slideentry {3}{7}{2}{70/73}{Feature Extraction \& Classification}{0}}}
\@writefile{nav}{\headcommand {\beamer@framepages {70}{73}}}
\@writefile{nav}{\headcommand {\slideentry {3}{7}{3}{74/79}{Feature Extraction \& Classification}{0}}}
\@writefile{nav}{\headcommand {\beamer@framepages {74}{79}}}
\@writefile{nav}{\headcommand {\slideentry {3}{7}{4}{80/83}{Feature Extraction \& Classification}{0}}}
\@writefile{nav}{\headcommand {\beamer@framepages {80}{83}}}
\@writefile{nav}{\headcommand {\slideentry {3}{7}{5}{84/90}{Feature Extraction \& Classification}{0}}}
\@writefile{nav}{\headcommand {\beamer@framepages {84}{90}}}
\@writefile{nav}{\headcommand {\slideentry {3}{7}{6}{91/94}{Feature Extraction \& Classification}{0}}}
\@writefile{nav}{\headcommand {\beamer@framepages {91}{94}}}
\@writefile{toc}{\beamer@sectionintoc {4}{Visualisation Tools}{95}{0}{4}}
\@writefile{nav}{\headcommand {\sectionentry {4}{Visualisation Tools}{95}{Visualisation Tools}{0}}}
\@writefile{nav}{\headcommand {\beamer@sectionpages {23}{94}}}
\@writefile{nav}{\headcommand {\beamer@subsectionpages {69}{94}}}
\@writefile{toc}{\beamer@subsectionintoc {4}{1}{Visualisation Tools}{95}{0}{4}}
\@writefile{nav}{\headcommand {\beamer@subsectionentry {0}{4}{1}{95}{Visualisation Tools}}\headcommand {\beamer@subsectionpages {95}{94}}}
\@writefile{nav}{\headcommand {\slideentry {4}{1}{1}{95/95}{Visualisation Tools}{0}}}
\@writefile{nav}{\headcommand {\beamer@framepages {95}{95}}}
\@writefile{toc}{\beamer@subsectionintoc {4}{2}{Phred Score Viewer}{96}{0}{4}}
\@writefile{nav}{\headcommand {\beamer@subsectionentry {0}{4}{2}{96}{Phred Score Viewer}}\headcommand {\beamer@subsectionpages {95}{95}}}
\@writefile{nav}{\headcommand {\slideentry {4}{2}{1}{96/96}{Phred Score Viewer}{0}}}
\@writefile{nav}{\headcommand {\beamer@framepages {96}{96}}}
\@writefile{nav}{\headcommand {\slideentry {4}{2}{2}{97/97}{Phred Score Viewer}{0}}}
\@writefile{nav}{\headcommand {\beamer@framepages {97}{97}}}
\@writefile{nav}{\headcommand {\slideentry {4}{2}{3}{98/100}{Phred Score Viewer}{0}}}
\@writefile{nav}{\headcommand {\beamer@framepages {98}{100}}}
\@writefile{toc}{\beamer@subsectionintoc {4}{3}{Variation Viewer}{101}{0}{4}}
\@writefile{nav}{\headcommand {\beamer@subsectionentry {0}{4}{3}{101}{Variation Viewer}}\headcommand {\beamer@subsectionpages {96}{100}}}
\@writefile{nav}{\headcommand {\slideentry {4}{3}{1}{101/101}{Variation Viewer}{0}}}
\@writefile{nav}{\headcommand {\beamer@framepages {101}{101}}}
\@writefile{nav}{\headcommand {\slideentry {4}{3}{2}{102/104}{Variation Viewer}{0}}}
\@writefile{nav}{\headcommand {\beamer@framepages {102}{104}}}
\@writefile{toc}{\beamer@sectionintoc {5}{Viral Genome Detection}{105}{0}{5}}
\@writefile{nav}{\headcommand {\sectionentry {5}{Viral Genome Detection}{105}{Viral Genome Detection}{0}}}
\@writefile{nav}{\headcommand {\beamer@sectionpages {95}{104}}}
\@writefile{nav}{\headcommand {\beamer@subsectionpages {101}{104}}}
\@writefile{toc}{\beamer@subsectionintoc {5}{1}{Viral Genome Detection}{105}{0}{5}}
\@writefile{nav}{\headcommand {\beamer@subsectionentry {0}{5}{1}{105}{Viral Genome Detection}}\headcommand {\beamer@subsectionpages {105}{104}}}
\@writefile{nav}{\headcommand {\slideentry {5}{1}{1}{105/105}{Viral Genome Detection}{0}}}
\@writefile{nav}{\headcommand {\beamer@framepages {105}{105}}}
\@writefile{nav}{\headcommand {\slideentry {5}{1}{2}{106/108}{Viral Genome Detection}{0}}}
\@writefile{nav}{\headcommand {\beamer@framepages {106}{108}}}
\@writefile{nav}{\headcommand {\slideentry {5}{1}{3}{109/109}{Viral Genome Detection}{0}}}
\@writefile{nav}{\headcommand {\beamer@framepages {109}{109}}}
\@writefile{nav}{\headcommand {\slideentry {5}{1}{4}{110/110}{Viral Genome Detection}{0}}}
\@writefile{nav}{\headcommand {\beamer@framepages {110}{110}}}
\@writefile{toc}{\beamer@sectionintoc {6}{BWA v/s BWA-PSSM}{111}{0}{6}}
\@writefile{nav}{\headcommand {\sectionentry {6}{BWA v/s BWA-PSSM}{111}{BWA v/s BWA-PSSM}{0}}}
\@writefile{nav}{\headcommand {\beamer@sectionpages {105}{110}}}
\@writefile{nav}{\headcommand {\beamer@subsectionpages {105}{110}}}
\@writefile{toc}{\beamer@subsectionintoc {6}{1}{BWA v/s BWA-PSSM}{111}{0}{6}}
\@writefile{nav}{\headcommand {\beamer@subsectionentry {0}{6}{1}{111}{BWA v/s BWA-PSSM}}\headcommand {\beamer@subsectionpages {111}{110}}}
\@writefile{nav}{\headcommand {\slideentry {6}{1}{1}{111/111}{BWA v/s BWA-PSSM}{0}}}
\@writefile{nav}{\headcommand {\beamer@framepages {111}{111}}}
\@writefile{nav}{\headcommand {\slideentry {6}{1}{1}{111/112}{BWA v/s BWA-PSSM}{0}}}
\@writefile{nav}{\headcommand {\beamer@framepages {111}{112}}}
\@writefile{nav}{\headcommand {\slideentry {6}{1}{1}{111/113}{BWA v/s BWA-PSSM}{0}}}
\@writefile{nav}{\headcommand {\beamer@framepages {111}{113}}}
\@writefile{nav}{\headcommand {\slideentry {6}{1}{2}{114/120}{BWA v/s BWA-PSSM}{0}}}
\@writefile{nav}{\headcommand {\beamer@framepages {114}{120}}}
\@writefile{toc}{\beamer@sectionintoc {7}{Appendix}{121}{0}{7}}
\@writefile{nav}{\headcommand {\sectionentry {7}{Appendix}{121}{Appendix}{0}}}
\@writefile{nav}{\headcommand {\beamer@sectionpages {111}{120}}}
\@writefile{nav}{\headcommand {\beamer@subsectionpages {111}{120}}}
\@writefile{nav}{\headcommand {\slideentry {7}{0}{3}{121/121}{}{0}}}
\@writefile{nav}{\headcommand {\beamer@framepages {121}{121}}}
\@writefile{toc}{\beamer@subsectionintoc {7}{1}{Differential Expression Statistics}{122}{0}{7}}
\@writefile{nav}{\headcommand {\beamer@subsectionentry {0}{7}{1}{122}{Differential Expression Statistics}}\headcommand {\beamer@subsectionpages {121}{121}}}
\@writefile{nav}{\headcommand {\slideentry {7}{1}{1}{122/122}{Differential Expression Statistics}{0}}}
\@writefile{nav}{\headcommand {\beamer@framepages {122}{122}}}
\@writefile{nav}{\headcommand {\slideentry {7}{1}{1}{122/123}{Differential Expression Statistics}{0}}}
\@writefile{nav}{\headcommand {\beamer@framepages {122}{123}}}
\@writefile{nav}{\headcommand {\slideentry {7}{1}{1}{122/124}{Differential Expression Statistics}{0}}}
\@writefile{nav}{\headcommand {\beamer@framepages {122}{124}}}
\@writefile{nav}{\headcommand {\slideentry {7}{1}{1}{122/125}{Differential Expression Statistics}{0}}}
\@writefile{nav}{\headcommand {\beamer@framepages {122}{125}}}
\@writefile{nav}{\headcommand {\slideentry {7}{1}{1}{122/126}{Differential Expression Statistics}{0}}}
\@writefile{nav}{\headcommand {\beamer@framepages {122}{126}}}
\@writefile{toc}{\beamer@subsectionintoc {7}{2}{Correspondence Analysis}{127}{0}{7}}
\@writefile{nav}{\headcommand {\beamer@subsectionentry {0}{7}{2}{127}{Correspondence Analysis}}\headcommand {\beamer@subsectionpages {122}{126}}}
\@writefile{nav}{\headcommand {\slideentry {7}{2}{1}{127/127}{Correspondence Analysis}{0}}}
\@writefile{nav}{\headcommand {\beamer@framepages {127}{127}}}
\@writefile{nav}{\headcommand {\slideentry {7}{2}{1}{127/128}{Correspondence Analysis}{0}}}
\@writefile{nav}{\headcommand {\beamer@framepages {127}{128}}}
\@writefile{toc}{\beamer@subsubsectionintoc {7}{2}{1}{The significance of Chi-squared distance}{127}{0}{7}}
\@writefile{nav}{\headcommand {\beamer@subsubsectionentry {0}{7}{2}{1}{127}{The significance of Chi-squared distance}}}
\@writefile{nav}{\headcommand {\slideentry {7}{2}{1}{127/129}{Correspondence Analysis}{0}}}
\@writefile{nav}{\headcommand {\beamer@framepages {127}{129}}}
\@writefile{nav}{\headcommand {\slideentry {7}{2}{1}{127/130}{Correspondence Analysis}{0}}}
\@writefile{nav}{\headcommand {\beamer@framepages {127}{130}}}
\@writefile{nav}{\headcommand {\slideentry {7}{2}{1}{127/131}{Correspondence Analysis}{0}}}
\@writefile{nav}{\headcommand {\beamer@framepages {127}{131}}}
\@writefile{nav}{\headcommand {\slideentry {7}{2}{1}{127/132}{Correspondence Analysis}{0}}}
\@writefile{nav}{\headcommand {\beamer@framepages {127}{132}}}
\@writefile{nav}{\headcommand {\slideentry {7}{2}{1}{127/133}{Correspondence Analysis}{0}}}
\@writefile{nav}{\headcommand {\beamer@framepages {127}{133}}}
\@writefile{toc}{\beamer@subsectionintoc {7}{3}{SVM}{134}{0}{7}}
\@writefile{nav}{\headcommand {\beamer@subsectionentry {0}{7}{3}{134}{SVM}}\headcommand {\beamer@subsectionpages {127}{133}}}
\@writefile{nav}{\headcommand {\slideentry {7}{3}{1}{134/134}{SVM}{0}}}
\@writefile{nav}{\headcommand {\beamer@framepages {134}{134}}}
\@writefile{nav}{\headcommand {\slideentry {7}{3}{1}{134/135}{SVM}{0}}}
\@writefile{nav}{\headcommand {\beamer@framepages {134}{135}}}
\@writefile{nav}{\headcommand {\beamer@partpages {1}{135}}}
\@writefile{nav}{\headcommand {\beamer@subsectionpages {134}{135}}}
\@writefile{nav}{\headcommand {\beamer@sectionpages {121}{135}}}
\@writefile{nav}{\headcommand {\beamer@documentpages {135}}}
\@writefile{nav}{\headcommand {\def \inserttotalframenumber {67}}}
