\relax 
\citation{torkamani}
\citation{cancergenome}
\citation{zhang}
\FN@pp@footnotehinttrue 
\@writefile{toc}{\contentsline {chapter}{\numberline {2}Driver mutation identification}{12}{chapter.2}}
\@writefile{lof}{\addvspace {10\p@ }}
\@writefile{lot}{\addvspace {10\p@ }}
\@writefile{toc}{\contentsline {section}{\numberline {2.1}Driver Mutations}{12}{section.2.1}}
\@writefile{brf}{\backcite{torkamani}{{12}{2.1}{section.2.1}}}
\@writefile{brf}{\backcite{cancergenome}{{12}{2.1}{section.2.1}}}
\@writefile{brf}{\backcite{zhang}{{12}{2.1}{section.2.1}}}
\citation{polyphen2}
\citation{polyphen2}
\citation{psic}
\@writefile{brf}{\backcite{polyphen2}{{13}{2.2}{section.2.2}}}
\@writefile{toc}{\contentsline {section}{\numberline {2.2}Polyphen2 \cite  {polyphen2}}{13}{section.2.2}}
\@writefile{brf}{\backcite{polyphen2}{{13}{2.2}{section.2.2}}}
\@writefile{brf}{\backcite{psic}{{13}{1}{Item.11}}}
\citation{polyphen2}
\citation{sift}
\citation{psiblast}
\newlabel{fig:polyphen2}{{2.2}{14}{Polyphen2 \cite {polyphen2}\relax }{Item.19}{}}
\@writefile{lof}{\contentsline {figure}{\numberline {2.1}{\ignorespaces Polyphen2 Steps, Adapted from \cite  {polyphen2}}}{14}{figure.2.1}}
\@writefile{brf}{\backcite{polyphen2}{{14}{2.1}{figure.2.1}}}
\@writefile{brf}{\backcite{sift}{{14}{2.3}{section.2.3}}}
\@writefile{toc}{\contentsline {section}{\numberline {2.3}SIFT \cite  {sift}}{14}{section.2.3}}
\@writefile{brf}{\backcite{psiblast}{{14}{2.3}{section.2.3}}}
\citation{mutationassesor}
\@writefile{brf}{\backcite{mutationassesor}{{15}{2.4}{section.2.4}}}
\@writefile{toc}{\contentsline {section}{\numberline {2.4}Mutation Assessor \cite  {mutationassesor}}{15}{section.2.4}}
\citation{mutationassesor}
\@writefile{brf}{\backcite{mutationassesor}{{16}{2.4}{section.2.4}}}
\newlabel{eq:diff}{{2.3}{16}{Mutation Assessor \cite {mutationassesor}\relax }{equation.2.4.3}{}}
\citation{carter2009}
\citation{carter2009}
\newlabel{eqn:cluster}{{2.5}{17}{Mutation Assessor \cite {mutationassesor}\relax }{equation.2.4.5}{}}
\newlabel{eq:spec}{{2.6}{17}{Mutation Assessor \cite {mutationassesor}\relax }{equation.2.4.6}{}}
\newlabel{eqn:fis}{{2.7}{17}{Mutation Assessor \cite {mutationassesor}\relax }{equation.2.4.7}{}}
\@writefile{brf}{\backcite{carter2009}{{17}{2.5}{section.2.5}}}
\@writefile{toc}{\contentsline {section}{\numberline {2.5}CHASM \cite  {carter2009}}{17}{section.2.5}}
\@writefile{brf}{\backcite{carter2009}{{17}{2.5}{section.2.5}}}
\citation{shannon2001}
\@writefile{brf}{\backcite{shannon2001}{{18}{2.5}{section.2.5}}}
\@writefile{toc}{\contentsline {subsection}{\numberline {2.5.1}Feature Selection}{18}{subsection.2.5.1}}
\citation{cosmic}
\citation{gonzalez2012}
\citation{sift}
\citation{polyphen2}
\citation{mutationassesor}
\@writefile{lot}{\contentsline {table}{\numberline {2.1}{\ignorespaces Empty Mutation Probability Matrix, $C^*pG$ represents only C nucleotide was mutated in a CpG dinucleotide }}{20}{table.2.1}}
\newlabel{table:cpg}{{2.1}{20}{Empty Mutation Probability Matrix, $C^*pG$ represents only C nucleotide was mutated in a CpG dinucleotide\relax }{table.2.1}{}}
\@writefile{toc}{\contentsline {subsection}{\numberline {2.5.2}In silico mutations}{20}{subsection.2.5.2}}
\@writefile{toc}{\contentsline {subsection}{\numberline {2.5.3}Training and Output}{20}{subsection.2.5.3}}
\@writefile{brf}{\backcite{cosmic}{{20}{2.5.3}{subsection.2.5.3}}}
\@writefile{brf}{\backcite{gonzalez2012}{{20}{2.6}{section.2.6}}}
\@writefile{toc}{\contentsline {section}{\numberline {2.6}TransFIC \cite  {gonzalez2012}}{20}{section.2.6}}
\@writefile{brf}{\backcite{sift}{{20}{2.6}{section.2.6}}}
\@writefile{brf}{\backcite{polyphen2}{{20}{2.6}{section.2.6}}}
\@writefile{brf}{\backcite{mutationassesor}{{20}{2.6}{section.2.6}}}
\citation{abecasis2010}
\citation{ashburner2000}
\citation{subramanian2005}
\citation{bateman2004}
\@writefile{brf}{\backcite{abecasis2010}{{21}{2.6}{section.2.6}}}
\@writefile{brf}{\backcite{ashburner2000}{{21}{2.6}{section.2.6}}}
\@writefile{brf}{\backcite{subramanian2005}{{21}{2.6}{section.2.6}}}
\@writefile{brf}{\backcite{bateman2004}{{21}{2.6}{section.2.6}}}
\FN@pp@footnotehinttrue 
\@setckpt{Chapter2/chapter2}{
\setcounter{page}{22}
\setcounter{equation}{11}
\setcounter{enumi}{9}
\setcounter{enumii}{0}
\setcounter{enumiii}{0}
\setcounter{enumiv}{0}
\setcounter{footnote}{0}
\setcounter{mpfootnote}{0}
\setcounter{part}{0}
\setcounter{chapter}{2}
\setcounter{section}{6}
\setcounter{subsection}{0}
\setcounter{subsubsection}{0}
\setcounter{paragraph}{0}
\setcounter{subparagraph}{0}
\setcounter{figure}{1}
\setcounter{table}{1}
\setcounter{pp@next@reset}{1}
\setcounter{@fnserial}{0}
\setcounter{NAT@ctr}{0}
\setcounter{Item}{19}
\setcounter{Hfootnote}{0}
\setcounter{bookmark@seq@number}{18}
\setcounter{parentequation}{0}
\setcounter{csvinputline}{0}
\setcounter{csvrow}{0}
\setcounter{csvcol}{0}
\setcounter{AM@survey}{0}
\setcounter{lstnumber}{1}
\setcounter{section@level}{1}
\setcounter{lstlisting}{0}
}
