\select@language {english}
\addvspace {10\p@ }
\contentsline {figure}{\numberline {1.1}{\ignorespaces Complementary strands of DNA}}{1}{figure.1.1}
\contentsline {figure}{\numberline {1.2}{\ignorespaces Chromosome,DNA and genes, \url {http://www.bbc.co.uk/schools/gcsebitesize/science/add_aqa_pre_2011/celldivision/celldivision1.shtml}}}{2}{figure.1.2}
\contentsline {figure}{\numberline {1.3}{\ignorespaces Nucleosides, \url {http://www.uic.edu/classes/bios/bios100/lectures/dna.htm}}}{3}{figure.1.3}
\contentsline {figure}{\numberline {1.4}{\ignorespaces ddNTP and dNTP \url {http://www.uic.edu/classes/bios/bios100/lectures/techniques.htm}}}{4}{figure.1.4}
\contentsline {figure}{\numberline {1.5}{\ignorespaces Terminating chains with radio-labeled ddNTPs}}{6}{figure.1.5}
\contentsline {figure}{\numberline {1.6}{\ignorespaces Autoradigram, Source: \url {http://www.bio.davidson.edu/courses/molbio/molstudents/spring2003/obenrader/sanger_method_page.htm}}}{6}{figure.1.6}
\contentsline {figure}{\numberline {1.7}{\ignorespaces Shotgun Sequencing , Source: \url {http://www.scq.ubc.ca/genome-projects-uncovering-the-blueprints-of-biology/}}}{7}{figure.1.7}
\contentsline {figure}{\numberline {1.8}{\ignorespaces FastQ format, Partially adapted from \url {http://en.wikipedia.org/wiki/FASTQ_format}}}{8}{figure.1.8}
\contentsline {figure}{\numberline {1.9}{\ignorespaces NGS Workflow,Adapted from \url {http://cgf.nci.nih.gov/operations/bioinformatics.html}}}{10}{figure.1.9}
\addvspace {10\p@ }
\contentsline {figure}{\numberline {2.1}{\ignorespaces Polyphen2 Steps, Adapted from \cite {polyphen2}}}{14}{figure.2.1}
\addvspace {10\p@ }
\contentsline {figure}{\numberline {3.1}{\ignorespaces Polyphen2 Input Format, \url {http://genetics.bwh.harvard.edu/pph2/bgi.shtml}}}{23}{figure.3.1}
\contentsline {figure}{\numberline {3.2}{\ignorespaces Polyphen2 Workflow as implemented in Galaxy}}{24}{figure.3.2}
\contentsline {figure}{\numberline {3.3}{\ignorespaces SIFT/PROVEAN Input Format, \url {http://provean.jcvi.org/genome_submit.php}}}{24}{figure.3.3}
\contentsline {figure}{\numberline {3.4}{\ignorespaces SIFT/PROVEAN Workflow as implemented in Galaxy}}{25}{figure.3.4}
\contentsline {figure}{\numberline {3.5}{\ignorespaces Mutation Assessor Input Format, \url {http://mutationassessor.org}}}{25}{figure.3.5}
\contentsline {figure}{\numberline {3.6}{\ignorespaces Mutation Assessor Workflow as implemented in Galaxy}}{26}{figure.3.6}
\contentsline {figure}{\numberline {3.7}{\ignorespaces TransFIC Input Format, \url {http://bg.upf.edu/transfic/home}}}{26}{figure.3.7}
\contentsline {figure}{\numberline {3.8}{\ignorespaces TransFIC Workflow as implemented in Galaxy}}{27}{figure.3.8}
\contentsline {figure}{\numberline {3.9}{\ignorespaces Condel Input Format, \url {http://bg.upf.edu/condel/home}}}{27}{figure.3.9}
\contentsline {figure}{\numberline {3.10}{\ignorespaces Condel Workflow as implemented in Galaxy}}{28}{figure.3.10}
\addvspace {10\p@ }
\contentsline {figure}{\numberline {4.1}{\ignorespaces A Galaxy based workflow to process VCF files. The VCF files are converted to transFIC-friendly format}}{30}{figure.4.1}
\contentsline {figure}{\numberline {4.2}{\ignorespaces Heatmap representing the outputs of various tools. The framework is flexible enough to allow visualising output of more tools. The rows represent "chromosome:position" format. Darker shades of red represent damaging/ high functional impact mutations, lighter represents benign/low functional impact}}{31}{figure.4.2}
\contentsline {figure}{\numberline {4.3}{\ignorespaces Heatmap Zoomed}}{32}{figure.4.3}
\addvspace {10\p@ }
\contentsline {figure}{\numberline {5.1}{\ignorespaces A published page of steps involved in Condel workflow accessible via a public URL. The workflow can be directly imported or downloaded too}}{34}{figure.5.1}
\contentsline {figure}{\numberline {5.2}{\ignorespaces bcbio-nextgen report on repeated segments}}{35}{figure.5.2}
\contentsline {figure}{\numberline {5.3}{\ignorespaces bcbio-nextgen report on quality profile of reads}}{36}{figure.5.3}
\addvspace {10\p@ }
\contentsline {figure}{\numberline {6.1}{\ignorespaces Steps to detect viral genomes in human NGS data}}{39}{figure.6.1}
\contentsline {figure}{\numberline {6.2}{\ignorespaces Reads unmapped to the human genome were aligned with custom built viral genome. All the reads mapping to this genome were then blasted. Some of the tissues showed an exact identity match between the read originally unaligned and the HPV16 genome sequence. Screenshots taken from NCBI BLAST \cite {ncbiblast}}}{40}{figure.6.2}
\addvspace {10\p@ }
\contentsline {figure}{\numberline {7.1}{\ignorespaces ROC curve for BWA v/s BWA-PSSM mappings}}{42}{figure.7.1}
\addvspace {10\p@ }
\contentsline {figure}{\numberline {8.1}{\ignorespaces Traditional clinical studies}}{47}{figure.8.1}
\contentsline {figure}{\numberline {8.2}{\ignorespaces Curse of dimensionality with microarray and most other high throughput data}}{47}{figure.8.2}
\contentsline {figure}{\numberline {8.3}{\ignorespaces $log_2$ transformed foreground intensities of 17 control and 16 Grade II GBM patients}}{50}{figure.8.3}
\contentsline {figure}{\numberline {8.4}{\ignorespaces $log_2$ transformed background intensities of 17 control and 16 Grade II GBM patients}}{51}{figure.8.4}
\contentsline {figure}{\numberline {8.5}{\ignorespaces Boxplots after background correction using 'normexp+offset'. Offset=100}}{63}{figure.8.5}
\contentsline {figure}{\numberline {8.6}{\ignorespaces Boxplots after 'quantile' normalisation of background corrected raw values using 'normexp+offset'}}{64}{figure.8.6}
\contentsline {figure}{\numberline {8.7}{\ignorespaces Raw foreground log2 transformed intensities across negative control spots}}{65}{figure.8.7}
\contentsline {figure}{\numberline {8.8}{\ignorespaces Raw foreground log2 transformed intensities across all spots}}{66}{figure.8.8}
\contentsline {figure}{\numberline {8.9}{\ignorespaces Foreground intensities post quantile normalization and background correction }}{67}{figure.8.9}
\contentsline {figure}{\numberline {8.10}{\ignorespaces Volcano plot highlighting the statistically significant genes}}{68}{figure.8.10}
\contentsline {figure}{\numberline {8.11}{\ignorespaces Expression levels of the top 10 differentially expressed genes}}{69}{figure.8.11}
\addvspace {10\p@ }
\contentsline {figure}{\numberline {9.1}{\ignorespaces Correspondence Analysis of Grade4 samples as compared to Controls. The genes located along the diagonals have association with the Grade4/Control samples. Association can be negative or positive. Control and Grade4 samples are separated along the second axis. However the separation is not distinct. }}{74}{figure.9.1}
\contentsline {figure}{\numberline {9.2}{\ignorespaces Hierarchical clustering with Average linkage for Grade4 and Control samples. Though there are two distinct clusters, there is an intermixing of groups too}}{75}{figure.9.2}
\addvspace {10\p@ }
\contentsline {figure}{\numberline {10.1}{\ignorespaces Features and their Brier scores for Control v/s Grade4}}{81}{figure.10.1}
\addvspace {10\p@ }
\contentsline {figure}{\numberline {11.1}{\ignorespaces Box plot plotted using a javascript based phredscore plotter, for a 100-read based sequence}}{84}{figure.11.1}
\contentsline {figure}{\numberline {11.2}{\ignorespaces Stacked bar charts showing the frequency of damaging(red), benign(green) and intermediate(yellow) mutations in a protein }}{85}{figure.11.2}
\addvspace {10\p@ }
\addvspace {10\p@ }
