\relax 
\providecommand\HyperFirstAtBeginDocument{\AtBeginDocument}
\HyperFirstAtBeginDocument{\ifx\hyper@anchor\@undefined
\global\let\oldcontentsline\contentsline
\gdef\contentsline#1#2#3#4{\oldcontentsline{#1}{#2}{#3}}
\global\let\oldnewlabel\newlabel
\gdef\newlabel#1#2{\newlabelxx{#1}#2}
\gdef\newlabelxx#1#2#3#4#5#6{\oldnewlabel{#1}{{#2}{#3}}}
\AtEndDocument{\ifx\hyper@anchor\@undefined
\let\contentsline\oldcontentsline
\let\newlabel\oldnewlabel
\fi}
\fi}
\global\let\hyper@last\relax 
\gdef\HyperFirstAtBeginDocument#1{#1}
\providecommand\HyField@AuxAddToFields[1]{}
\providecommand \oddpage@label [2]{}
\select@language{english}
\@writefile{toc}{\select@language{english}}
\@writefile{lof}{\select@language{english}}
\@writefile{lot}{\select@language{english}}
\providecommand {\FN@pp@footnotehinttrue }{}
\providecommand {\FN@pp@footnote@aux }[2]{}
\@input{Dedication/dedication.aux}
\FN@pp@footnotehinttrue 
\FN@pp@footnotehinttrue 
\@input{Acknowledgement/acknowledgement.aux}
\FN@pp@footnotehinttrue 
\@input{Abstract/abstract.aux}
\FN@pp@footnotehinttrue 
\citation{polyphen2}
\citation{sift}
\citation{mutationassesor}
\citation{carter2009}
\citation{gonzalez2012}
\FN@pp@footnotehinttrue 
\@writefile{toc}{\contentsline {chapter}{Contents}{vii}{chapter*.1}}
\@writefile{brf}{\backcite{polyphen2}{{vii}{(document)}{Doc-Start}}}
\@writefile{brf}{\backcite{sift}{{vii}{(document)}{Doc-Start}}}
\@writefile{brf}{\backcite{mutationassesor}{{vii}{(document)}{Doc-Start}}}
\@writefile{brf}{\backcite{carter2009}{{vii}{(document)}{Doc-Start}}}
\@writefile{brf}{\backcite{gonzalez2012}{{vii}{(document)}{Doc-Start}}}
\FN@pp@footnotehinttrue 
\citation{polyphen2}
\@writefile{toc}{\contentsline {chapter}{List of Figures}{x}{chapter*.2}}
\@writefile{brf}{\backcite{polyphen2}{{x}{(document)}{Doc-Start}}}
\citation{ncbiblast}
\@writefile{brf}{\backcite{ncbiblast}{{xi}{(document)}{Doc-Start}}}
\FN@pp@footnotehinttrue 
\@input{Introduction/introduction.aux}
\FN@pp@footnotehinttrue 
\@input{Chapter2/chapter2.aux}
\FN@pp@footnotehinttrue 
\@input{Chapter3/chapter3.aux}
\FN@pp@footnotehinttrue 
\@input{Chapter3a/chapter3a.aux}
\FN@pp@footnotehinttrue 
\@input{Chapter4/chapter4.aux}
\FN@pp@footnotehinttrue 
\@input{Chapter5/chapter5.aux}
\FN@pp@footnotehinttrue 
\@input{Chapter6/chapter6.aux}
\FN@pp@footnotehinttrue 
\@input{Chapter7/chapter7.aux}
\FN@pp@footnotehinttrue 
\@input{Chapter8/chapter8.aux}
\FN@pp@footnotehinttrue 
\@input{Chapter9/chapter9.aux}
\FN@pp@footnotehinttrue 
\@input{Chapter10/chapter10.aux}
\FN@pp@footnotehinttrue 
\@input{Conclusions/conclusions.aux}
\FN@pp@footnotehinttrue 
\@input{Appendix/appendix1.aux}
\FN@pp@footnotehinttrue 
\FN@pp@footnotehinttrue 
\bibstyle{plainnat}
\bibdata{References/references}
\bibcite{abecasis2010}{{1}{2010}{{Abecasis et~al.}}{{Abecasis, Altshuler, Auton, Brooks, Durbin, Gibbs, Hurles, McVean, Bentley, Chakravarti, et~al.}}}
\bibcite{polyphen2}{{2}{2010}{{Adzhubei et~al.}}{{Adzhubei, Schmidt, Peshkin, Ramensky, Gerasimova, Bork, Kondrashov, and Sunyaev}}}
\bibcite{psiblast}{{3}{1997}{{Altschul et~al.}}{{Altschul, Madden, Sch{\"a}ffer, Zhang, Zhang, Miller, and Lipman}}}
\bibcite{ashburner2000}{{4}{2000}{{Ashburner et~al.}}{{Ashburner, Ball, Blake, Botstein, Butler, Cherry, Davis, Dolinski, Dwight, Eppig, et~al.}}}
\bibcite{avery}{{5}{1944}{{Avery et~al.}}{{Avery, MacLeod, and McCarty}}}
\bibcite{bateman2004}{{6}{2004}{{Bateman et~al.}}{{Bateman, Coin, Durbin, Finn, Hollich, Griffiths-Jones, Khanna, Marshall, Moxon, Sonnhammer, et~al.}}}
\bibcite{benzecri1973coll}{{7}{1973}{{Benzecri}}{{}}}
\bibcite{carter2009}{{8}{2009}{{Carter et~al.}}{{Carter, Chen, Isik, Tyekucheva, Velculescu, Kinzler, Vogelstein, and Karchin}}}
\FN@pp@footnotehinttrue 
\@writefile{toc}{\contentsline {chapter}{References}{94}{appendix*.28}}
\bibcite{Claverie1999}{{9}{1999}{{Claverie}}{{}}}
\bibcite{cleveland1996smoothing}{{10}{1996}{{Cleveland and Loader}}{{}}}
\bibcite{depristo2011}{{11}{2011}{{DePristo et~al.}}{{DePristo, Banks, Poplin, Garimella, Maguire, Hartl, Philippakis, del Angel, Rivas, Hanna, et~al.}}}
\bibcite{drummond2012}{{12}{2012}{{Drummond}}{{}}}
\bibcite{edwards2003non}{{13}{2003}{{Edwards}}{{}}}
\bibcite{ewing1998}{{14}{1998}{{Ewing et~al.}}{{Ewing, Hillier, Wendl, and Green}}}
\bibcite{forbes2010cosmic}{{15}{2010}{{Forbes et~al.}}{{Forbes, Bindal, Bamford, Cole, Kok, Beare, Jia, Shepherd, Leung, Menzies, et~al.}}}
\bibcite{vcf}{{16}{2013}{{Genomes}}{{}}}
\bibcite{Giles2003}{{17}{2003}{{Giles and Kipling}}{{}}}
\bibcite{gnad2013assessment}{{18}{2013}{{Gnad et~al.}}{{Gnad, Baucom, Mukhyala, Manning, and Zhang}}}
\bibcite{galaxy}{{19}{2010}{{Goecks et~al.}}{{Goecks, Nekrutenko, Taylor, Team, et~al.}}}
\bibcite{Golub1999}{{20}{1999}{{Golub}}{{}}}
\bibcite{gomez2013biojs}{{21}{2013}{{G{\'o}mez et~al.}}{{G{\'o}mez, Garc{\'\i }a, Salazar, Villaveces, Gore, Garc{\'\i }a, Mart{\'\i }n, Launay, Alc{\'a}ntara, Ayll{\'o}n, et~al.}}}
\bibcite{gonzalez2012}{{22}{2012}{{Gonzalez-Perez et~al.}}{{Gonzalez-Perez, Deu-Pons, Lopez-Bigas, et~al.}}}
\bibcite{Guo2006}{{23}{2006}{{Guo et~al.}}{{Guo, Lobenhofer, Wang, Shippy, Harris, Zhang, Mei, Chen, Herman, Goodsaid, Hurban, Phillips, Xu, Deng, Sun, Tong, Dragan, and Shi}}}
\bibcite{cosmic}{{24}{2013}{{Institute}}{{}}}
\bibcite{bwapssm}{{25}{2013}{{K}}{{}}}
\bibcite{sift}{{26}{2009}{{Kumar et~al.}}{{Kumar, Henikoff, and Ng}}}
\bibcite{bwa}{{27}{2009{}}{{Li}}{{}}}
\bibcite{wgsim}{{28}{2009{}}{{Li}}{{}}}
\bibcite{lu2008assessing}{{29}{2008}{{Lu et~al.}}{{Lu, Lee, Shultz, Dardick, Jung, Phetsom, Jia, Rice, Goldberg, Schnable, et~al.}}}
\bibcite{martin2005evaluation}{{30}{2005}{{Martin-Magniette et~al.}}{{Martin-Magniette, Aubert, Cabannes, and Daudin}}}
\bibcite{mcgee2006parameter}{{31}{2006}{{McGee and Chen}}{{}}}
\bibcite{meldrum2011}{{32}{2011}{{Meldrum et~al.}}{{Meldrum, Doyle, and Tothill}}}
\bibcite{firstgeneration}{{33}{2009}{{Metzker}}{{}}}
\bibcite{ncbi}{{34}{2013{}}{{NCBI}}{{}}}
\bibcite{ncbiblast}{{35}{2013{}}{{NCBI}}{{}}}
\bibcite{mutationassesor}{{36}{2011}{{Reva et~al.}}{{Reva, Antipin, and Sander}}}
\bibcite{ritchie2007comparison}{{37}{2007}{{Ritchie et~al.}}{{Ritchie, Silver, Oshlack, Holmes, Diyagama, Holloway, and Smyth}}}
\bibcite{sanger}{{38}{1977}{{Sanger et~al.}}{{Sanger, Nicklen, and Coulson}}}
\bibcite{shannon2001}{{39}{2001}{{Shannon}}{{}}}
\bibcite{shendure}{{40}{2008}{{Shendure and Ji}}{{}}}
\bibcite{shi2010optimizing}{{41}{2010}{{Shi et~al.}}{{Shi, Oshlack, and Smyth}}}
\bibcite{Silver2009}{{42}{2009}{{Silver et~al.}}{{Silver, Ritchie, and Smyth}}}
\bibcite{Smyth2004a}{{43}{2004}{{Smyth}}{{}}}
\bibcite{sobek2006microarray}{{44}{2006}{{Sobek et~al.}}{{Sobek, Bartscherer, Jacob, Hoheisel, and Angenendt}}}
\bibcite{staden1979}{{45}{1979}{{Staden}}{{}}}
\bibcite{cancergenome}{{46}{2009}{{Stratton et~al.}}{{Stratton, Campbell, and Futreal}}}
\bibcite{subramanian2005}{{47}{2005}{{Subramanian et~al.}}{{Subramanian, Tamayo, Mootha, Mukherjee, Ebert, Gillette, Paulovich, Pomeroy, Golub, Lander, et~al.}}}
\bibcite{psic}{{48}{1999}{{Sunyaev et~al.}}{{Sunyaev, Eisenhaber, Rodchenkov, Eisenhaber, Tumanyan, and Kuznetsov}}}
\bibcite{tang2008recursive}{{49}{2008}{{Tang et~al.}}{{Tang, Zhang, Huang, Hu, and Zhao}}}
\bibcite{tao2004information}{{50}{2004}{{Tao et~al.}}{{Tao, Liu, Friedman, and Lussier}}}
\bibcite{torkamani}{{51}{2008}{{Torkamani and Schork}}{{}}}
\bibcite{Tusher2001}{{52}{2001}{{Tusher et~al.}}{{Tusher, Tibshirani, and Chu}}}
\bibcite{witten2007comparison}{{53}{2007}{{Witten and Tibshirani}}{{}}}
\bibcite{yadav2007wholeness}{{54}{2007}{{Yadav}}{{}}}
\bibcite{yu2005}{{55}{2005}{{Yu et~al.}}{{Yu, Ferber, Cheung, Chung, Wong, and Smith}}}
\bibcite{zhang}{{56}{2013}{{Zhang et~al.}}{{Zhang, Liu, Sun, Chen, Foltz, and Lin}}}
\FN@pp@footnotehinttrue 
