\relax 
\citation{yadav2007wholeness}
\FN@pp@footnotehinttrue 
\@writefile{toc}{\contentsline {chapter}{\numberline {8}Analysis of Microarray Data}{43}{chapter.8}}
\@writefile{lof}{\addvspace {10\p@ }}
\@writefile{lot}{\addvspace {10\p@ }}
\@writefile{toc}{\contentsline {section}{\numberline {8.1}Introduction}{43}{section.8.1}}
\@writefile{toc}{\contentsline {section}{\numberline {8.2}-Omics Research }{43}{section.8.2}}
\@writefile{toc}{\contentsline {subsection}{\numberline {8.2.1}Genomics}{44}{subsection.8.2.1}}
\@writefile{brf}{\backcite{yadav2007wholeness}{{44}{8.2.1}{subsection.8.2.1}}}
\@writefile{toc}{\contentsline {subsection}{\numberline {8.2.2}Proteomics}{44}{subsection.8.2.2}}
\@writefile{toc}{\contentsline {subsection}{\numberline {8.2.3}Transcriptomics}{44}{subsection.8.2.3}}
\@writefile{toc}{\contentsline {section}{\numberline {8.3}Microarray Technology}{44}{section.8.3}}
\@writefile{toc}{\contentsline {subsection}{\numberline {8.3.1}Motivation}{44}{subsection.8.3.1}}
\citation{sobek2006microarray}
\newlabel{Schema of a DNA microarray design}{{8.3.2}{45}{Experimental Design\relax }{subsection.8.3.2}{}}
\@writefile{toc}{\contentsline {subsection}{\numberline {8.3.2}Experimental Design}{45}{subsection.8.3.2}}
\@writefile{toc}{\contentsline {subsection}{\numberline {8.3.3}Why Microarray?}{46}{subsection.8.3.3}}
\@writefile{brf}{\backcite{sobek2006microarray}{{46}{8.3.3}{subsection.8.3.3}}}
\@writefile{toc}{\contentsline {section}{\numberline {8.4}Microarray: A data science problem}{46}{section.8.4}}
\@writefile{toc}{\contentsline {section}{\numberline {8.5}Data Analysis}{46}{section.8.5}}
\newlabel{microarray:history}{{8.4}{47}{Microarray: A data science problem\relax }{section.8.4}{}}
\@writefile{lof}{\contentsline {figure}{\numberline {8.1}{\ignorespaces Traditional clinical studies}}{47}{figure.8.1}}
\newlabel{microarray:current}{{8.4}{47}{Microarray: A data science problem\relax }{figure.8.1}{}}
\@writefile{lof}{\contentsline {figure}{\numberline {8.2}{\ignorespaces  Curse of dimensionality with microarray and most other high throughput data}}{47}{figure.8.2}}
\citation{martin2005evaluation}
\citation{lu2008assessing}
\@writefile{brf}{\backcite{martin2005evaluation}{{48}{8.5}{section.8.5}}}
\@writefile{brf}{\backcite{lu2008assessing}{{48}{8.5}{section*.11}}}
\citation{Giles2003}
\@writefile{brf}{\backcite{Giles2003}{{49}{8.5}{section*.13}}}
\@writefile{toc}{\contentsline {section}{\numberline {8.6}Exploratory Data Analysis}{49}{section.8.6}}
\@writefile{toc}{\contentsline {section}{\numberline {8.7}Background Correction}{49}{section.8.7}}
\@writefile{toc}{\contentsline {subsection}{\numberline {8.7.1}standard}{49}{subsection.8.7.1}}
\citation{shi2010optimizing}
\@writefile{lof}{\contentsline {figure}{\numberline {8.3}{\ignorespaces $log_2$ transformed foreground intensities of 17 control and 16 Grade II GBM patients}}{50}{figure.8.3}}
\newlabel{raw:foreground}{{8.3}{50}{$log_2$ transformed foreground intensities of 17 control and 16 Grade II GBM patients\relax }{figure.8.3}{}}
\@writefile{toc}{\contentsline {subsection}{\numberline {8.7.2}normexp method}{50}{subsection.8.7.2}}
\@writefile{brf}{\backcite{shi2010optimizing}{{50}{8.7.2}{subsection.8.7.2}}}
\citation{Silver2009}
\@writefile{lof}{\contentsline {figure}{\numberline {8.4}{\ignorespaces $log_2$ transformed background intensities of 17 control and 16 Grade II GBM patients}}{51}{figure.8.4}}
\newlabel{raw:background}{{8.4}{51}{$log_2$ transformed background intensities of 17 control and 16 Grade II GBM patients\relax }{figure.8.4}{}}
\@writefile{brf}{\backcite{Silver2009}{{51}{8.7.2}{equation.8.7.4}}}
\citation{edwards2003non}
\citation{mcgee2006parameter}
\citation{ritchie2007comparison}
\@writefile{toc}{\contentsline {subsection}{\numberline {8.7.3}normexp+offset}{52}{subsection.8.7.3}}
\@writefile{toc}{\contentsline {subsection}{\numberline {8.7.4}edwards}{52}{subsection.8.7.4}}
\@writefile{brf}{\backcite{edwards2003non}{{52}{8.7.4}{subsection.8.7.4}}}
\@writefile{toc}{\contentsline {subsection}{\numberline {8.7.5}rma}{52}{subsection.8.7.5}}
\@writefile{brf}{\backcite{mcgee2006parameter}{{52}{8.7.5}{subsection.8.7.5}}}
\@writefile{toc}{\contentsline {section}{\numberline {8.8}Between Array Normalization}{52}{section.8.8}}
\@writefile{brf}{\backcite{ritchie2007comparison}{{52}{8.8}{section.8.8}}}
\citation{cleveland1996smoothing}
\@writefile{toc}{\contentsline {subsubsection}{\numberline {8.8.0.1}cyclicloess}{53}{subsubsection.8.8.0.1}}
\@writefile{brf}{\backcite{cleveland1996smoothing}{{53}{8.8.0.1}{subsubsection.8.8.0.1}}}
\@writefile{toc}{\contentsline {subsection}{\numberline {8.8.1}Quantile Normalization}{54}{subsection.8.8.1}}
\@writefile{lot}{\contentsline {table}{\numberline {8.1}{\ignorespaces Original Data}}{55}{table.8.1}}
\@writefile{lot}{\contentsline {table}{\numberline {8.2}{\ignorespaces Data with sorted columns}}{55}{table.8.2}}
\@writefile{toc}{\contentsline {section}{\numberline {8.9}Differential Expression}{55}{section.8.9}}
\@writefile{lot}{\contentsline {table}{\numberline {8.3}{\ignorespaces Row means}}{55}{table.8.3}}
\citation{Tusher2001}
\citation{Guo2006}
\@writefile{lot}{\contentsline {table}{\numberline {8.4}{\ignorespaces Rank Mappings }}{56}{table.8.4}}
\@writefile{lot}{\contentsline {table}{\numberline {8.5}{\ignorespaces Rank Matrix:}}{56}{table.8.5}}
\@writefile{toc}{\contentsline {subsection}{\numberline {8.9.1}Fold Change}{56}{subsection.8.9.1}}
\@writefile{brf}{\backcite{Tusher2001}{{56}{8.9.1}{subsection.8.9.1}}}
\@writefile{brf}{\backcite{Guo2006}{{56}{8.9.1}{subsection.8.9.1}}}
\@writefile{lot}{\contentsline {table}{\numberline {8.6}{\ignorespaces Normalised Matrix}}{56}{table.8.6}}
\citation{Claverie1999}
\citation{witten2007comparison}
\@writefile{brf}{\backcite{Claverie1999}{{57}{8.9.1}{subsection.8.9.1}}}
\@writefile{brf}{\backcite{witten2007comparison}{{57}{8.9.1}{subsection.8.9.1}}}
\@writefile{toc}{\contentsline {subsection}{\numberline {8.9.2}t test}{57}{subsection.8.9.2}}
\@writefile{toc}{\contentsline {subsubsection}{\numberline {8.9.2.1}Welch's t test }{57}{subsubsection.8.9.2.1}}
\citation{Smyth2004a}
\@writefile{toc}{\contentsline {subsubsection}{\numberline {8.9.2.2}Pooled variance t-test}{58}{subsubsection.8.9.2.2}}
\@writefile{toc}{\contentsline {subsection}{\numberline {8.9.3}Linear Models for Microarray}{58}{subsection.8.9.3}}
\@writefile{brf}{\backcite{Smyth2004a}{{58}{8.9.3}{subsection.8.9.3}}}
\@writefile{toc}{\contentsline {subsection}{\numberline {8.9.4}Correcting for multiple comparison}{59}{subsection.8.9.4}}
\@writefile{toc}{\contentsline {section}{\numberline {8.10}Materials and Methods}{60}{section.8.10}}
\@writefile{toc}{\contentsline {section}{\numberline {8.11}Discussion}{62}{section.8.11}}
\FN@pp@footnotehinttrue 
\@writefile{lof}{\contentsline {figure}{\numberline {8.5}{\ignorespaces Boxplots after background correction using 'normexp+offset'. Offset=100}}{63}{figure.8.5}}
\@writefile{lof}{\contentsline {figure}{\numberline {8.6}{\ignorespaces Boxplots after 'quantile' normalisation of background corrected raw values using 'normexp+offset'}}{64}{figure.8.6}}
\@writefile{lof}{\contentsline {figure}{\numberline {8.7}{\ignorespaces Raw foreground log2 transformed intensities across negative control spots}}{65}{figure.8.7}}
\@writefile{lof}{\contentsline {figure}{\numberline {8.8}{\ignorespaces Raw foreground log2 transformed intensities across all spots}}{66}{figure.8.8}}
\@writefile{lof}{\contentsline {figure}{\numberline {8.9}{\ignorespaces Foreground intensities post quantile normalization and background correction }}{67}{figure.8.9}}
\@writefile{lof}{\contentsline {figure}{\numberline {8.10}{\ignorespaces Volcano plot highlighting the statistically significant genes}}{68}{figure.8.10}}
\@writefile{lof}{\contentsline {figure}{\numberline {8.11}{\ignorespaces Expression levels of the top 10 differentially expressed genes}}{69}{figure.8.11}}
\@setckpt{Chapter7/chapter7}{
\setcounter{page}{70}
\setcounter{equation}{16}
\setcounter{enumi}{3}
\setcounter{enumii}{0}
\setcounter{enumiii}{0}
\setcounter{enumiv}{0}
\setcounter{footnote}{0}
\setcounter{mpfootnote}{0}
\setcounter{part}{0}
\setcounter{chapter}{8}
\setcounter{section}{11}
\setcounter{subsection}{0}
\setcounter{subsubsection}{0}
\setcounter{paragraph}{0}
\setcounter{subparagraph}{0}
\setcounter{figure}{11}
\setcounter{table}{6}
\setcounter{pp@next@reset}{1}
\setcounter{@fnserial}{0}
\setcounter{NAT@ctr}{0}
\setcounter{Item}{34}
\setcounter{Hfootnote}{0}
\setcounter{bookmark@seq@number}{72}
\setcounter{parentequation}{0}
\setcounter{csvinputline}{0}
\setcounter{csvrow}{0}
\setcounter{csvcol}{0}
\setcounter{AM@survey}{0}
\setcounter{lstnumber}{1}
\setcounter{section@level}{1}
\setcounter{lstlisting}{0}
}
