\relax 
\providecommand\HyperFirstAtBeginDocument{\AtBeginDocument}
\HyperFirstAtBeginDocument{\ifx\hyper@anchor\@undefined
\global\let\oldcontentsline\contentsline
\gdef\contentsline#1#2#3#4{\oldcontentsline{#1}{#2}{#3}}
\global\let\oldnewlabel\newlabel
\gdef\newlabel#1#2{\newlabelxx{#1}#2}
\gdef\newlabelxx#1#2#3#4#5#6{\oldnewlabel{#1}{{#2}{#3}}}
\AtEndDocument{\ifx\hyper@anchor\@undefined
\let\contentsline\oldcontentsline
\let\newlabel\oldnewlabel
\fi}
\fi}
\global\let\hyper@last\relax 
\gdef\HyperFirstAtBeginDocument#1{#1}
\providecommand\HyField@AuxAddToFields[1]{}
\@writefile{toc}{\beamer@endinputifotherversion {3.10pt}}
\@writefile{nav}{\beamer@endinputifotherversion {3.10pt}}
\@writefile{toc}{\beamer@sectionintoc {1}{\scshape  Introduction}{1}{0}{1}}
\@writefile{nav}{\headcommand {\sectionentry {1}{\scshape  Introduction}{1}{\scshape  Introduction}{0}}}
\@writefile{nav}{\headcommand {\beamer@sectionpages {1}{0}}}
\@writefile{nav}{\headcommand {\beamer@subsectionpages {1}{0}}}
\@writefile{nav}{\headcommand {\slideentry {1}{0}{1}{1/1}{}{0}}}
\@writefile{nav}{\headcommand {\beamer@framepages {1}{1}}}
\@writefile{toc}{\beamer@subsectionintoc {1}{1}{Introduction}{2}{0}{1}}
\@writefile{nav}{\headcommand {\beamer@subsectionentry {0}{1}{1}{2}{Introduction}}\headcommand {\beamer@subsectionpages {1}{1}}}
\@writefile{nav}{\headcommand {\slideentry {1}{1}{1}{2/5}{Introduction}{0}}}
\@writefile{nav}{\headcommand {\beamer@framepages {2}{5}}}
\@writefile{toc}{\beamer@sectionintoc {2}{TCGA}{6}{0}{2}}
\@writefile{nav}{\headcommand {\sectionentry {2}{TCGA}{6}{TCGA}{0}}}
\@writefile{nav}{\headcommand {\beamer@sectionpages {1}{5}}}
\@writefile{nav}{\headcommand {\beamer@subsectionpages {2}{5}}}
\@writefile{toc}{\beamer@subsectionintoc {2}{1}{TCGA}{6}{0}{2}}
\@writefile{nav}{\headcommand {\beamer@subsectionentry {0}{2}{1}{6}{TCGA}}\headcommand {\beamer@subsectionpages {6}{5}}}
\@writefile{nav}{\headcommand {\slideentry {2}{1}{1}{6/17}{TCGA}{0}}}
\@writefile{nav}{\headcommand {\beamer@framepages {6}{17}}}
\@writefile{toc}{\beamer@subsectionintoc {2}{2}{Why TCGA}{18}{0}{2}}
\@writefile{nav}{\headcommand {\beamer@subsectionentry {0}{2}{2}{18}{Why TCGA}}\headcommand {\beamer@subsectionpages {6}{17}}}
\@writefile{nav}{\headcommand {\slideentry {2}{2}{1}{18/21}{Why TCGA}{0}}}
\@writefile{nav}{\headcommand {\beamer@framepages {18}{21}}}
\@writefile{toc}{\beamer@sectionintoc {3}{Case Study}{22}{0}{3}}
\@writefile{nav}{\headcommand {\sectionentry {3}{Case Study}{22}{Case Study}{0}}}
\@writefile{nav}{\headcommand {\beamer@sectionpages {6}{21}}}
\@writefile{nav}{\headcommand {\beamer@subsectionpages {18}{21}}}
\@writefile{toc}{\beamer@subsectionintoc {3}{1}{Case Study I}{22}{0}{3}}
\@writefile{nav}{\headcommand {\beamer@subsectionentry {0}{3}{1}{22}{Case Study I}}\headcommand {\beamer@subsectionpages {22}{21}}}
\@writefile{nav}{\headcommand {\slideentry {3}{1}{1}{22/23}{Case Study I}{0}}}
\@writefile{nav}{\headcommand {\beamer@framepages {22}{23}}}
\@writefile{toc}{\beamer@subsectionintoc {3}{2}{Case Study II}{24}{0}{3}}
\@writefile{nav}{\headcommand {\beamer@subsectionentry {0}{3}{2}{24}{Case Study II}}\headcommand {\beamer@subsectionpages {22}{23}}}
\@writefile{nav}{\headcommand {\slideentry {3}{2}{1}{24/29}{Case Study II}{0}}}
\@writefile{nav}{\headcommand {\beamer@framepages {24}{29}}}
\@writefile{toc}{\beamer@subsectionintoc {3}{3}{Case Study III}{30}{0}{3}}
\@writefile{nav}{\headcommand {\beamer@subsectionentry {0}{3}{3}{30}{Case Study III}}\headcommand {\beamer@subsectionpages {24}{29}}}
\@writefile{nav}{\headcommand {\slideentry {3}{3}{1}{30/35}{Case Study III}{0}}}
\@writefile{nav}{\headcommand {\beamer@framepages {30}{35}}}
\@writefile{toc}{\beamer@sectionintoc {4}{Wrapup}{36}{0}{4}}
\@writefile{nav}{\headcommand {\sectionentry {4}{Wrapup}{36}{Wrapup}{0}}}
\@writefile{nav}{\headcommand {\beamer@sectionpages {22}{35}}}
\@writefile{nav}{\headcommand {\beamer@subsectionpages {30}{35}}}
\@writefile{nav}{\headcommand {\slideentry {4}{0}{2}{36/38}{}{0}}}
\@writefile{nav}{\headcommand {\beamer@framepages {36}{38}}}
\@writefile{nav}{\headcommand {\beamer@partpages {1}{38}}}
\@writefile{nav}{\headcommand {\beamer@subsectionpages {36}{38}}}
\@writefile{nav}{\headcommand {\beamer@sectionpages {36}{38}}}
\@writefile{nav}{\headcommand {\beamer@documentpages {38}}}
\@writefile{nav}{\headcommand {\def \inserttotalframenumber {8}}}
