\beamer@endinputifotherversion {3.10pt}
\headcommand {\sectionentry {1}{\scshape Introduction}{1}{\scshape Introduction}{0}}
\headcommand {\beamer@sectionpages {1}{0}}
\headcommand {\beamer@subsectionpages {1}{0}}
\headcommand {\slideentry {1}{0}{1}{1/1}{}{0}}
\headcommand {\beamer@framepages {1}{1}}
\headcommand {\beamer@subsectionentry {0}{1}{1}{2}{Introduction}}\headcommand {\beamer@subsectionpages {1}{1}}
\headcommand {\slideentry {1}{1}{1}{2/5}{Introduction}{0}}
\headcommand {\beamer@framepages {2}{5}}
\headcommand {\sectionentry {2}{TCGA}{6}{TCGA}{0}}
\headcommand {\beamer@sectionpages {1}{5}}
\headcommand {\beamer@subsectionpages {2}{5}}
\headcommand {\beamer@subsectionentry {0}{2}{1}{6}{TCGA}}\headcommand {\beamer@subsectionpages {6}{5}}
\headcommand {\slideentry {2}{1}{1}{6/17}{TCGA}{0}}
\headcommand {\beamer@framepages {6}{17}}
\headcommand {\beamer@subsectionentry {0}{2}{2}{18}{Why TCGA}}\headcommand {\beamer@subsectionpages {6}{17}}
\headcommand {\slideentry {2}{2}{1}{18/21}{Why TCGA}{0}}
\headcommand {\beamer@framepages {18}{21}}
\headcommand {\sectionentry {3}{Case Study}{22}{Case Study}{0}}
\headcommand {\beamer@sectionpages {6}{21}}
\headcommand {\beamer@subsectionpages {18}{21}}
\headcommand {\beamer@subsectionentry {0}{3}{1}{22}{Case Study I}}\headcommand {\beamer@subsectionpages {22}{21}}
\headcommand {\slideentry {3}{1}{1}{22/23}{Case Study I}{0}}
\headcommand {\beamer@framepages {22}{23}}
\headcommand {\beamer@subsectionentry {0}{3}{2}{24}{Case Study II}}\headcommand {\beamer@subsectionpages {22}{23}}
\headcommand {\slideentry {3}{2}{1}{24/29}{Case Study II}{0}}
\headcommand {\beamer@framepages {24}{29}}
\headcommand {\beamer@subsectionentry {0}{3}{3}{30}{Case Study III}}\headcommand {\beamer@subsectionpages {24}{29}}
\headcommand {\slideentry {3}{3}{1}{30/35}{Case Study III}{0}}
\headcommand {\beamer@framepages {30}{35}}
\headcommand {\sectionentry {4}{Wrapup}{36}{Wrapup}{0}}
\headcommand {\beamer@sectionpages {22}{35}}
\headcommand {\beamer@subsectionpages {30}{35}}
\headcommand {\slideentry {4}{0}{2}{36/38}{}{0}}
\headcommand {\beamer@framepages {36}{38}}
\headcommand {\beamer@partpages {1}{38}}
\headcommand {\beamer@subsectionpages {36}{38}}
\headcommand {\beamer@sectionpages {36}{38}}
\headcommand {\beamer@documentpages {38}}
\headcommand {\def \inserttotalframenumber {8}}
