\relax 
\citation{galaxy}
\citation{zhang}
\citation{zhang}
\FN@pp@footnotehinttrue 
\@writefile{toc}{\contentsline {chapter}{\numberline {3}Galaxy Toolboxes for Driver Mutation Discovery}{22}{chapter.3}}
\@writefile{lof}{\addvspace {10\p@ }}
\@writefile{lot}{\addvspace {10\p@ }}
\@writefile{toc}{\contentsline {section}{\numberline {3.1}Galaxy}{22}{section.3.1}}
\@writefile{brf}{\backcite{galaxy}{{22}{3.1}{section.3.1}}}
\@writefile{brf}{\backcite{zhang}{{22}{3.1}{section.3.1}}}
\@writefile{brf}{\backcite{zhang}{{22}{3.1}{section.3.1}}}
\citation{vcf}
\@writefile{brf}{\backcite{vcf}{{23}{3.1}{section.3.1}}}
\@writefile{toc}{\contentsline {section}{\numberline {3.2}Polyphen2}{23}{section.3.2}}
\@writefile{toc}{\contentsline {subsection}{\numberline {3.2.1}Input Format}{23}{subsection.3.2.1}}
\@writefile{lof}{\contentsline {figure}{\numberline {3.1}{\ignorespaces Polyphen2 Input Format, \url  {http://genetics.bwh.harvard.edu/pph2/bgi.shtml}}}{23}{figure.3.1}}
\newlabel{box:pph2input}{{3.1}{23}{Polyphen2 Input Format, \url {http://genetics.bwh.harvard.edu/pph2/bgi.shtml}\relax }{figure.3.1}{}}
\@writefile{toc}{\contentsline {subsection}{\numberline {3.2.2}Galaxy Workflow}{23}{subsection.3.2.2}}
\@writefile{toc}{\contentsline {section}{\numberline {3.3}SIFT}{23}{section.3.3}}
\@writefile{lof}{\contentsline {figure}{\numberline {3.2}{\ignorespaces Polyphen2 Workflow as implemented in Galaxy}}{24}{figure.3.2}}
\newlabel{box:pph2w}{{3.2}{24}{Polyphen2 Workflow as implemented in Galaxy\relax }{figure.3.2}{}}
\@writefile{lof}{\contentsline {figure}{\numberline {3.3}{\ignorespaces SIFT/PROVEAN Input Format, \url  {http://provean.jcvi.org/genome_submit.php}}}{24}{figure.3.3}}
\newlabel{box:siftinput}{{3.3}{24}{SIFT/PROVEAN Input Format, \url {http://provean.jcvi.org/genome_submit.php}\relax }{figure.3.3}{}}
\@writefile{toc}{\contentsline {subsection}{\numberline {3.3.1}Input Format}{25}{subsection.3.3.1}}
\@writefile{toc}{\contentsline {subsection}{\numberline {3.3.2}Galaxy Workflow}{25}{subsection.3.3.2}}
\@writefile{lof}{\contentsline {figure}{\numberline {3.4}{\ignorespaces SIFT/PROVEAN Workflow as implemented in Galaxy}}{25}{figure.3.4}}
\newlabel{box:siftw}{{3.4}{25}{SIFT/PROVEAN Workflow as implemented in Galaxy\relax }{figure.3.4}{}}
\@writefile{toc}{\contentsline {section}{\numberline {3.4}Mutation Assessor}{25}{section.3.4}}
\@writefile{toc}{\contentsline {subsection}{\numberline {3.4.1}Input Format}{25}{subsection.3.4.1}}
\@writefile{lof}{\contentsline {figure}{\numberline {3.5}{\ignorespaces Mutation Assessor Input Format, \url  {http://mutationassessor.org}}}{25}{figure.3.5}}
\newlabel{box:mainput}{{3.5}{25}{Mutation Assessor Input Format, \url {http://mutationassessor.org}\relax }{figure.3.5}{}}
\@writefile{toc}{\contentsline {subsection}{\numberline {3.4.2}Galaxy Workflow}{26}{subsection.3.4.2}}
\@writefile{lof}{\contentsline {figure}{\numberline {3.6}{\ignorespaces Mutation Assessor Workflow as implemented in Galaxy}}{26}{figure.3.6}}
\newlabel{box:maw}{{3.6}{26}{Mutation Assessor Workflow as implemented in Galaxy\relax }{figure.3.6}{}}
\@writefile{toc}{\contentsline {section}{\numberline {3.5}TransFIC}{26}{section.3.5}}
\@writefile{toc}{\contentsline {subsection}{\numberline {3.5.1}Input Format}{26}{subsection.3.5.1}}
\@writefile{lof}{\contentsline {figure}{\numberline {3.7}{\ignorespaces TransFIC Input Format, \url  {http://bg.upf.edu/transfic/home}}}{26}{figure.3.7}}
\newlabel{box:transficinput}{{3.7}{26}{TransFIC Input Format, \url {http://bg.upf.edu/transfic/home}\relax }{figure.3.7}{}}
\@writefile{lof}{\contentsline {figure}{\numberline {3.8}{\ignorespaces TransFIC Workflow as implemented in Galaxy}}{27}{figure.3.8}}
\newlabel{box:transficw}{{3.8}{27}{TransFIC Workflow as implemented in Galaxy\relax }{figure.3.8}{}}
\@writefile{toc}{\contentsline {subsection}{\numberline {3.5.2}Galaxy Workflow}{27}{subsection.3.5.2}}
\@writefile{toc}{\contentsline {section}{\numberline {3.6}Condel}{27}{section.3.6}}
\@writefile{toc}{\contentsline {subsection}{\numberline {3.6.1}Input Format}{27}{subsection.3.6.1}}
\@writefile{lof}{\contentsline {figure}{\numberline {3.9}{\ignorespaces Condel Input Format, \url  {http://bg.upf.edu/condel/home}}}{27}{figure.3.9}}
\newlabel{box:condelinput}{{3.9}{27}{Condel Input Format, \url {http://bg.upf.edu/condel/home}\relax }{figure.3.9}{}}
\@writefile{toc}{\contentsline {subsection}{\numberline {3.6.2}Galaxy Workflow}{27}{subsection.3.6.2}}
\@writefile{toc}{\contentsline {section}{\numberline {3.7}Results and Discussion}{27}{section.3.7}}
\@writefile{lof}{\contentsline {figure}{\numberline {3.10}{\ignorespaces Condel Workflow as implemented in Galaxy}}{28}{figure.3.10}}
\newlabel{box:condelw}{{3.10}{28}{Condel Workflow as implemented in Galaxy\relax }{figure.3.10}{}}
\FN@pp@footnotehinttrue 
\@setckpt{Chapter3/chapter3}{
\setcounter{page}{29}
\setcounter{equation}{0}
\setcounter{enumi}{9}
\setcounter{enumii}{0}
\setcounter{enumiii}{0}
\setcounter{enumiv}{0}
\setcounter{footnote}{0}
\setcounter{mpfootnote}{0}
\setcounter{part}{0}
\setcounter{chapter}{3}
\setcounter{section}{7}
\setcounter{subsection}{0}
\setcounter{subsubsection}{0}
\setcounter{paragraph}{0}
\setcounter{subparagraph}{0}
\setcounter{figure}{10}
\setcounter{table}{0}
\setcounter{pp@next@reset}{1}
\setcounter{@fnserial}{0}
\setcounter{NAT@ctr}{0}
\setcounter{Item}{19}
\setcounter{Hfootnote}{0}
\setcounter{bookmark@seq@number}{36}
\setcounter{parentequation}{0}
\setcounter{csvinputline}{0}
\setcounter{csvrow}{0}
\setcounter{csvcol}{0}
\setcounter{AM@survey}{0}
\setcounter{lstnumber}{1}
\setcounter{section@level}{1}
\setcounter{lstlisting}{0}
}
