\relax 
\citation{tao2004information}
\FN@pp@footnotehinttrue 
\@writefile{toc}{\contentsline {chapter}{\numberline {11}Visualisation tools for Bioinformatics }{83}{chapter.11}}
\@writefile{lof}{\addvspace {10\p@ }}
\@writefile{lot}{\addvspace {10\p@ }}
\@writefile{brf}{\backcite{tao2004information}{{83}{11}{section*.26}}}
\@writefile{toc}{\contentsline {section}{\numberline {11.1}Phred Score Viewer}{83}{section.11.1}}
\@writefile{toc}{\contentsline {subsection}{\numberline {11.1.1}Implementation details}{83}{subsection.11.1.1}}
\@writefile{toc}{\contentsline {section}{\numberline {11.2}Human Genetic Variation Viewer}{83}{section.11.2}}
\@writefile{lof}{\contentsline {figure}{\numberline {11.1}{\ignorespaces Box plot plotted using a javascript based phredscore plotter, for a 100-read based sequence}}{84}{figure.11.1}}
\@writefile{toc}{\contentsline {subsection}{\numberline {11.2.1}Implementation details}{84}{subsection.11.2.1}}
\@writefile{toc}{\contentsline {subsection}{\numberline {11.2.2}Conclusion}{84}{subsection.11.2.2}}
\@writefile{lof}{\contentsline {figure}{\numberline {11.2}{\ignorespaces Stacked bar charts showing the frequency of damaging(red), benign(green) and intermediate(yellow) mutations in a protein }}{85}{figure.11.2}}
\FN@pp@footnotehinttrue 
\@setckpt{Chapter10/chapter10}{
\setcounter{page}{86}
\setcounter{equation}{0}
\setcounter{enumi}{3}
\setcounter{enumii}{0}
\setcounter{enumiii}{0}
\setcounter{enumiv}{0}
\setcounter{footnote}{0}
\setcounter{mpfootnote}{0}
\setcounter{part}{0}
\setcounter{chapter}{11}
\setcounter{section}{2}
\setcounter{subsection}{2}
\setcounter{subsubsection}{0}
\setcounter{paragraph}{0}
\setcounter{subparagraph}{0}
\setcounter{figure}{2}
\setcounter{table}{0}
\setcounter{pp@next@reset}{1}
\setcounter{@fnserial}{0}
\setcounter{NAT@ctr}{0}
\setcounter{Item}{34}
\setcounter{Hfootnote}{0}
\setcounter{bookmark@seq@number}{86}
\setcounter{parentequation}{0}
\setcounter{csvinputline}{0}
\setcounter{csvrow}{0}
\setcounter{csvcol}{0}
\setcounter{AM@survey}{0}
\setcounter{lstnumber}{1}
\setcounter{section@level}{2}
\setcounter{lstlisting}{0}
}
