\relax 
\FN@pp@footnotehinttrue 
\@writefile{toc}{\contentsline {chapter}{\numberline {10}Classification of Microarray Data}{76}{chapter.10}}
\@writefile{lof}{\addvspace {10\p@ }}
\@writefile{lot}{\addvspace {10\p@ }}
\citation{Golub1999}
\@writefile{toc}{\contentsline {section}{\numberline {10.1}Curse of Dimensionality : Feature Selection}{77}{section.10.1}}
\@writefile{brf}{\backcite{Golub1999}{{77}{10.1}{section.10.1}}}
\@writefile{toc}{\contentsline {section}{\numberline {10.2}SVM Classification}{77}{section.10.2}}
\citation{tang2008recursive}
\@writefile{toc}{\contentsline {section}{\numberline {10.3}Cross Validation and SVM}{79}{section.10.3}}
\@writefile{brf}{\backcite{tang2008recursive}{{79}{10.3}{section.10.3}}}
\citation{Golub1999}
\@writefile{toc}{\contentsline {section}{\numberline {10.4}Results and Discussions}{80}{section.10.4}}
\@writefile{brf}{\backcite{Golub1999}{{80}{10.4}{figure.10.1}}}
\@writefile{lof}{\contentsline {figure}{\numberline {10.1}{\ignorespaces Features and their Brier scores for Control v/s Grade4}}{81}{figure.10.1}}
\FN@pp@footnotehinttrue 
\@setckpt{Chapter9/chapter9}{
\setcounter{page}{83}
\setcounter{equation}{8}
\setcounter{enumi}{3}
\setcounter{enumii}{0}
\setcounter{enumiii}{0}
\setcounter{enumiv}{0}
\setcounter{footnote}{0}
\setcounter{mpfootnote}{0}
\setcounter{part}{0}
\setcounter{chapter}{10}
\setcounter{section}{4}
\setcounter{subsection}{0}
\setcounter{subsubsection}{1}
\setcounter{paragraph}{0}
\setcounter{subparagraph}{0}
\setcounter{figure}{1}
\setcounter{table}{0}
\setcounter{pp@next@reset}{1}
\setcounter{@fnserial}{0}
\setcounter{NAT@ctr}{0}
\setcounter{Item}{34}
\setcounter{Hfootnote}{0}
\setcounter{bookmark@seq@number}{80}
\setcounter{parentequation}{0}
\setcounter{csvinputline}{0}
\setcounter{csvrow}{0}
\setcounter{csvcol}{0}
\setcounter{AM@survey}{0}
\setcounter{lstnumber}{1}
\setcounter{section@level}{1}
\setcounter{lstlisting}{0}
}
