\relax 
\citation{drummond2012}
\FN@pp@footnotehinttrue 
\@writefile{toc}{\contentsline {chapter}{\numberline {5}Errors in Bioinformatics data analysis and Reproducible Research}{33}{chapter.5}}
\@writefile{lof}{\addvspace {10\p@ }}
\@writefile{lot}{\addvspace {10\p@ }}
\@writefile{brf}{\backcite{drummond2012}{{33}{5}{chapter.5}}}
\citation{depristo2011}
\@writefile{lof}{\contentsline {figure}{\numberline {5.1}{\ignorespaces A published page of steps involved in Condel workflow accessible via a public URL. The workflow can be directly imported or downloaded too}}{34}{figure.5.1}}
\newlabel{box:condelpages}{{5.1}{34}{A published page of steps involved in Condel workflow accessible via a public URL. The workflow can be directly imported or downloaded too\relax }{figure.5.1}{}}
\@writefile{brf}{\backcite{depristo2011}{{34}{5}{section*.6}}}
\@writefile{lof}{\contentsline {figure}{\numberline {5.2}{\ignorespaces bcbio-nextgen report on repeated segments}}{35}{figure.5.2}}
\newlabel{box:bcbio1}{{5.2}{35}{bcbio-nextgen report on repeated segments\relax }{figure.5.2}{}}
\FN@pp@footnotehinttrue 
\@writefile{lof}{\contentsline {figure}{\numberline {5.3}{\ignorespaces bcbio-nextgen report on quality profile of reads}}{36}{figure.5.3}}
\newlabel{box:bcbio1}{{5.3}{36}{bcbio-nextgen report on quality profile of reads\relax }{figure.5.3}{}}
\@setckpt{Chapter4/chapter4}{
\setcounter{page}{37}
\setcounter{equation}{0}
\setcounter{enumi}{2}
\setcounter{enumii}{0}
\setcounter{enumiii}{0}
\setcounter{enumiv}{0}
\setcounter{footnote}{0}
\setcounter{mpfootnote}{0}
\setcounter{part}{0}
\setcounter{chapter}{5}
\setcounter{section}{0}
\setcounter{subsection}{0}
\setcounter{subsubsection}{0}
\setcounter{paragraph}{0}
\setcounter{subparagraph}{0}
\setcounter{figure}{3}
\setcounter{table}{0}
\setcounter{pp@next@reset}{1}
\setcounter{@fnserial}{0}
\setcounter{NAT@ctr}{0}
\setcounter{Item}{21}
\setcounter{Hfootnote}{0}
\setcounter{bookmark@seq@number}{39}
\setcounter{parentequation}{0}
\setcounter{csvinputline}{0}
\setcounter{csvrow}{0}
\setcounter{csvcol}{0}
\setcounter{AM@survey}{0}
\setcounter{lstnumber}{1}
\setcounter{section@level}{1}
\setcounter{lstlisting}{0}
}
