\relax 
\citation{bwa}
\citation{bwapssm}
\citation{wgsim}
\FN@pp@footnotehinttrue 
\@writefile{toc}{\contentsline {chapter}{\numberline {7}Benchmarking BWA with BWA-PSSM}{41}{chapter.7}}
\@writefile{lof}{\addvspace {10\p@ }}
\@writefile{lot}{\addvspace {10\p@ }}
\@writefile{brf}{\backcite{bwa}{{41}{7}{chapter.7}}}
\@writefile{brf}{\backcite{bwapssm}{{41}{7}{chapter.7}}}
\@writefile{brf}{\backcite{wgsim}{{41}{7}{chapter.7}}}
\citation{wgsim}
\@writefile{brf}{\backcite{wgsim}{{42}{7}{chapter.7}}}
\@writefile{lof}{\contentsline {figure}{\numberline {7.1}{\ignorespaces ROC curve for BWA v/s BWA-PSSM mappings}}{42}{figure.7.1}}
\newlabel{box:roc}{{7.1}{42}{ROC curve for BWA v/s BWA-PSSM mappings\relax }{figure.7.1}{}}
\FN@pp@footnotehinttrue 
\@setckpt{Chapter6/chapter6}{
\setcounter{page}{43}
\setcounter{equation}{0}
\setcounter{enumi}{2}
\setcounter{enumii}{0}
\setcounter{enumiii}{0}
\setcounter{enumiv}{0}
\setcounter{footnote}{0}
\setcounter{mpfootnote}{0}
\setcounter{part}{0}
\setcounter{chapter}{7}
\setcounter{section}{0}
\setcounter{subsection}{0}
\setcounter{subsubsection}{0}
\setcounter{paragraph}{0}
\setcounter{subparagraph}{0}
\setcounter{figure}{1}
\setcounter{table}{0}
\setcounter{pp@next@reset}{1}
\setcounter{@fnserial}{0}
\setcounter{NAT@ctr}{0}
\setcounter{Item}{23}
\setcounter{Hfootnote}{0}
\setcounter{bookmark@seq@number}{41}
\setcounter{parentequation}{0}
\setcounter{csvinputline}{0}
\setcounter{csvrow}{0}
\setcounter{csvcol}{0}
\setcounter{AM@survey}{0}
\setcounter{lstnumber}{1}
\setcounter{section@level}{1}
\setcounter{lstlisting}{0}
}
