\relax 
\citation{shotgun}
\citation{shotgun}
\FN@pp@footnotehinttrue 
\@writefile{toc}{\contentsline {chapter}{\numberline {3}Next Generation Sequencing}{9}{chapter.3}}
\@writefile{lof}{\addvspace {10\p@ }}
\@writefile{lot}{\addvspace {10\p@ }}
\@writefile{toc}{\contentsline {section}{\numberline {3.1}NGS Approaches}{9}{section.3.1}}
\@writefile{toc}{\contentsline {subsection}{\numberline {3.1.1}Shotgun Sequencing}{9}{subsection.3.1.1}}
\@writefile{brf}{\backcite{shotgun}{{9}{3.1.1}{subsection.3.1.1}}}
\@writefile{toc}{\contentsline {subsection}{\numberline {3.1.2}Top Down Approach}{9}{subsection.3.1.2}}
\@writefile{brf}{\backcite{shotgun}{{9}{3.1.2}{subsection.3.1.2}}}
\@writefile{lof}{\contentsline {figure}{\numberline {3.1}{\ignorespaces Shotgun Sequencing, The fragments are random and hence to ensure the whole genome sequencing the DNA stretch needs to be sequenced multiple times. Gaps might occur in case some part cannot be fragmented}}{10}{figure.3.1}}
\@writefile{lof}{\contentsline {figure}{\numberline {3.2}{\ignorespaces Top Down Sequencing, The fragments are ordered and can be reassembled back into the contiguous sequence after being sequenced individually}}{11}{figure.3.2}}
\@writefile{toc}{\contentsline {section}{\numberline {3.2}NGS Data}{11}{section.3.2}}
\citation{d}
\@writefile{toc}{\contentsline {subsection}{\numberline {3.2.1}FASTQ Files}{12}{subsection.3.2.1}}
\@writefile{toc}{\contentsline {subsubsection}{\numberline {3.2.1.1}FASTQ Quality Scores}{13}{subsubsection.3.2.1.1}}
\FN@pp@footnotehinttrue 
\@setckpt{Chapter2/chapter2}{
\setcounter{page}{14}
\setcounter{equation}{2}
\setcounter{enumi}{2}
\setcounter{enumii}{0}
\setcounter{enumiii}{0}
\setcounter{enumiv}{0}
\setcounter{footnote}{0}
\setcounter{mpfootnote}{0}
\setcounter{part}{0}
\setcounter{chapter}{3}
\setcounter{section}{2}
\setcounter{subsection}{1}
\setcounter{subsubsection}{1}
\setcounter{paragraph}{0}
\setcounter{subparagraph}{0}
\setcounter{figure}{2}
\setcounter{table}{0}
\setcounter{pp@next@reset}{1}
\setcounter{@fnserial}{0}
\setcounter{NAT@ctr}{0}
\setcounter{Item}{10}
\setcounter{Hfootnote}{0}
\setcounter{bookmark@seq@number}{18}
\setcounter{parentequation}{0}
\setcounter{lstnumber}{1}
\setcounter{section@level}{3}
\setcounter{lstlisting}{0}
}
