\relax 
\providecommand\HyperFirstAtBeginDocument{\AtBeginDocument}
\HyperFirstAtBeginDocument{\ifx\hyper@anchor\@undefined
\global\let\oldcontentsline\contentsline
\gdef\contentsline#1#2#3#4{\oldcontentsline{#1}{#2}{#3}}
\global\let\oldnewlabel\newlabel
\gdef\newlabel#1#2{\newlabelxx{#1}#2}
\gdef\newlabelxx#1#2#3#4#5#6{\oldnewlabel{#1}{{#2}{#3}}}
\AtEndDocument{\ifx\hyper@anchor\@undefined
\let\contentsline\oldcontentsline
\let\newlabel\oldnewlabel
\fi}
\fi}
\global\let\hyper@last\relax 
\gdef\HyperFirstAtBeginDocument#1{#1}
\providecommand\HyField@AuxAddToFields[1]{}
\@writefile{toc}{\beamer@endinputifotherversion {3.10pt}}
\@writefile{nav}{\beamer@endinputifotherversion {3.10pt}}
\@writefile{toc}{\beamer@sectionintoc {1}{\scshape  Introduction}{1}{0}{1}}
\@writefile{nav}{\headcommand {\sectionentry {1}{\scshape  Introduction}{1}{\scshape  Introduction}{0}}}
\@writefile{nav}{\headcommand {\beamer@sectionpages {1}{0}}}
\@writefile{nav}{\headcommand {\beamer@subsectionpages {1}{0}}}
\@writefile{nav}{\headcommand {\slideentry {1}{0}{1}{1/1}{}{0}}}
\@writefile{nav}{\headcommand {\beamer@framepages {1}{1}}}
\@writefile{nav}{\headcommand {\slideentry {1}{0}{2}{2/2}{}{0}}}
\@writefile{nav}{\headcommand {\beamer@framepages {2}{2}}}
\@writefile{toc}{\beamer@subsectionintoc {1}{1}{Objective}{3}{0}{1}}
\@writefile{nav}{\headcommand {\beamer@subsectionentry {0}{1}{1}{3}{Objective}}\headcommand {\beamer@subsectionpages {1}{2}}}
\@writefile{nav}{\headcommand {\slideentry {1}{1}{1}{3/15}{Objective}{0}}}
\@writefile{nav}{\headcommand {\beamer@framepages {3}{15}}}
\@writefile{toc}{\beamer@sectionintoc {2}{\scshape  Significant Mutations}{16}{0}{2}}
\@writefile{nav}{\headcommand {\sectionentry {2}{\scshape  Significant Mutations}{16}{\scshape  Significant Mutations}{0}}}
\@writefile{nav}{\headcommand {\beamer@sectionpages {1}{15}}}
\@writefile{nav}{\headcommand {\beamer@subsectionpages {3}{15}}}
\@writefile{toc}{\beamer@subsectionintoc {2}{1}{Motivation}{16}{0}{2}}
\@writefile{nav}{\headcommand {\beamer@subsectionentry {0}{2}{1}{16}{Motivation}}\headcommand {\beamer@subsectionpages {16}{15}}}
\@writefile{nav}{\headcommand {\slideentry {2}{1}{1}{16/16}{Motivation}{0}}}
\@writefile{nav}{\headcommand {\beamer@framepages {16}{16}}}
\@writefile{nav}{\headcommand {\slideentry {2}{1}{2}{17/19}{Motivation}{0}}}
\@writefile{nav}{\headcommand {\beamer@framepages {17}{19}}}
\@writefile{toc}{\beamer@subsectionintoc {2}{2}{Next Generation Sequencing}{20}{0}{2}}
\@writefile{nav}{\headcommand {\beamer@subsectionentry {0}{2}{2}{20}{Next Generation Sequencing}}\headcommand {\beamer@subsectionpages {16}{19}}}
\@writefile{nav}{\headcommand {\slideentry {2}{2}{1}{20/20}{Next Generation Sequencing}{0}}}
\@writefile{nav}{\headcommand {\beamer@framepages {20}{20}}}
\@writefile{nav}{\headcommand {\slideentry {2}{2}{2}{21/21}{Next Generation Sequencing}{0}}}
\@writefile{nav}{\headcommand {\beamer@framepages {21}{21}}}
\@writefile{nav}{\headcommand {\slideentry {2}{2}{3}{22/22}{Next Generation Sequencing}{0}}}
\@writefile{nav}{\headcommand {\beamer@framepages {22}{22}}}
\@writefile{toc}{\beamer@subsectionintoc {2}{3}{Computational Methods for Driver Detection}{23}{0}{2}}
\@writefile{nav}{\headcommand {\beamer@subsectionentry {0}{2}{3}{23}{Computational Methods for Driver Detection}}\headcommand {\beamer@subsectionpages {20}{22}}}
\@writefile{nav}{\headcommand {\slideentry {2}{3}{1}{23/25}{Computational Methods for Driver Detection}{0}}}
\@writefile{nav}{\headcommand {\beamer@framepages {23}{25}}}
\@writefile{nav}{\headcommand {\slideentry {2}{3}{2}{26/26}{Computational Methods for Driver Detection}{0}}}
\@writefile{nav}{\headcommand {\beamer@framepages {26}{26}}}
\@writefile{nav}{\headcommand {\slideentry {2}{3}{2}{26/27}{Computational Methods for Driver Detection}{0}}}
\@writefile{nav}{\headcommand {\beamer@framepages {26}{27}}}
\@writefile{nav}{\headcommand {\slideentry {2}{3}{3}{28/28}{Computational Methods for Driver Detection}{0}}}
\@writefile{nav}{\headcommand {\beamer@framepages {28}{28}}}
\@writefile{nav}{\headcommand {\slideentry {2}{3}{3}{28/29}{Computational Methods for Driver Detection}{0}}}
\@writefile{nav}{\headcommand {\beamer@framepages {28}{29}}}
\@writefile{nav}{\headcommand {\slideentry {2}{3}{4}{30/30}{Computational Methods for Driver Detection}{0}}}
\@writefile{nav}{\headcommand {\beamer@framepages {30}{30}}}
\@writefile{nav}{\headcommand {\slideentry {2}{3}{4}{30/31}{Computational Methods for Driver Detection}{0}}}
\@writefile{nav}{\headcommand {\beamer@framepages {30}{31}}}
\@writefile{nav}{\headcommand {\slideentry {2}{3}{4}{30/32}{Computational Methods for Driver Detection}{0}}}
\@writefile{nav}{\headcommand {\beamer@framepages {30}{32}}}
\@writefile{nav}{\headcommand {\slideentry {2}{3}{5}{33/33}{Computational Methods for Driver Detection}{0}}}
\@writefile{nav}{\headcommand {\beamer@framepages {33}{33}}}
\@writefile{nav}{\headcommand {\slideentry {2}{3}{5}{33/34}{Computational Methods for Driver Detection}{0}}}
\@writefile{nav}{\headcommand {\beamer@framepages {33}{34}}}
\@writefile{nav}{\headcommand {\slideentry {2}{3}{5}{33/35}{Computational Methods for Driver Detection}{0}}}
\@writefile{nav}{\headcommand {\beamer@framepages {33}{35}}}
\@writefile{nav}{\headcommand {\slideentry {2}{3}{6}{36/36}{Computational Methods for Driver Detection}{0}}}
\@writefile{nav}{\headcommand {\beamer@framepages {36}{36}}}
\@writefile{toc}{\beamer@sectionintoc {3}{\scshape  Viral Genome Detecion}{37}{0}{3}}
\@writefile{nav}{\headcommand {\sectionentry {3}{\scshape  Viral Genome Detecion}{37}{\scshape  Viral Genome Detecion}{0}}}
\@writefile{nav}{\headcommand {\beamer@sectionpages {16}{36}}}
\@writefile{nav}{\headcommand {\beamer@subsectionpages {23}{36}}}
\@writefile{toc}{\beamer@subsectionintoc {3}{1}{Next Generation Sequencing }{37}{0}{3}}
\@writefile{nav}{\headcommand {\beamer@subsectionentry {0}{3}{1}{37}{Next Generation Sequencing }}\headcommand {\beamer@subsectionpages {37}{36}}}
\@writefile{nav}{\headcommand {\slideentry {3}{1}{1}{37/37}{Next Generation Sequencing }{0}}}
\@writefile{nav}{\headcommand {\beamer@framepages {37}{37}}}
\@writefile{nav}{\headcommand {\slideentry {3}{1}{1}{37/38}{Next Generation Sequencing }{0}}}
\@writefile{nav}{\headcommand {\beamer@framepages {37}{38}}}
\@writefile{nav}{\headcommand {\slideentry {3}{1}{2}{39/39}{Next Generation Sequencing }{0}}}
\@writefile{nav}{\headcommand {\beamer@framepages {39}{39}}}
\@writefile{nav}{\headcommand {\slideentry {3}{1}{3}{40/41}{Next Generation Sequencing }{0}}}
\@writefile{nav}{\headcommand {\beamer@framepages {40}{41}}}
\@writefile{nav}{\headcommand {\slideentry {3}{1}{4}{42/42}{Next Generation Sequencing }{0}}}
\@writefile{nav}{\headcommand {\beamer@framepages {42}{42}}}
\@writefile{nav}{\headcommand {\slideentry {3}{1}{5}{43/43}{Next Generation Sequencing }{0}}}
\@writefile{nav}{\headcommand {\beamer@framepages {43}{43}}}
\@writefile{toc}{\beamer@sectionintoc {4}{\scshape  Reproducibility}{44}{0}{4}}
\@writefile{nav}{\headcommand {\sectionentry {4}{\scshape  Reproducibility}{44}{\scshape  Reproducibility}{0}}}
\@writefile{nav}{\headcommand {\beamer@sectionpages {37}{43}}}
\@writefile{nav}{\headcommand {\beamer@subsectionpages {37}{43}}}
\@writefile{toc}{\beamer@subsectionintoc {4}{1}{Reproducibility}{44}{0}{4}}
\@writefile{nav}{\headcommand {\beamer@subsectionentry {0}{4}{1}{44}{Reproducibility}}\headcommand {\beamer@subsectionpages {44}{43}}}
\@writefile{nav}{\headcommand {\slideentry {4}{1}{1}{44/44}{Reproducibility}{0}}}
\@writefile{nav}{\headcommand {\beamer@framepages {44}{44}}}
\@writefile{toc}{\beamer@sectionintoc {5}{\scshape  Conclusions}{45}{0}{5}}
\@writefile{nav}{\headcommand {\sectionentry {5}{\scshape  Conclusions}{45}{\scshape  Conclusions}{0}}}
\@writefile{nav}{\headcommand {\beamer@sectionpages {44}{44}}}
\@writefile{nav}{\headcommand {\beamer@subsectionpages {44}{44}}}
\@writefile{toc}{\beamer@subsectionintoc {5}{1}{Wrapping up}{45}{0}{5}}
\@writefile{nav}{\headcommand {\beamer@subsectionentry {0}{5}{1}{45}{Wrapping up}}\headcommand {\beamer@subsectionpages {45}{44}}}
\@writefile{nav}{\headcommand {\slideentry {5}{1}{1}{45/45}{Wrapping up}{0}}}
\@writefile{nav}{\headcommand {\beamer@framepages {45}{45}}}
\@writefile{nav}{\headcommand {\beamer@partpages {1}{45}}}
\@writefile{nav}{\headcommand {\beamer@subsectionpages {45}{45}}}
\@writefile{nav}{\headcommand {\beamer@sectionpages {45}{45}}}
\@writefile{nav}{\headcommand {\beamer@documentpages {45}}}
\@writefile{nav}{\headcommand {\def \inserttotalframenumber {28}}}
