\relax 
\citation{benzecri1973coll}
\FN@pp@footnotehinttrue 
\@writefile{toc}{\contentsline {chapter}{\numberline {9}Correspondence analaysis}{70}{chapter.9}}
\@writefile{lof}{\addvspace {10\p@ }}
\@writefile{lot}{\addvspace {10\p@ }}
\@writefile{toc}{\contentsline {section}{\numberline {9.1}Introduction}{70}{section.9.1}}
\@writefile{brf}{\backcite{benzecri1973coll}{{70}{9.1}{section.9.1}}}
\@writefile{toc}{\contentsline {subsubsection}{\numberline {9.1.0.1}The significance of Chi-squared distance}{72}{subsubsection.9.1.0.1}}
\@writefile{lof}{\contentsline {figure}{\numberline {9.1}{\ignorespaces Correspondence Analysis of Grade4 samples as compared to Controls. The genes located along the diagonals have association with the Grade4/Control samples. Association can be negative or positive. Control and Grade4 samples are separated along the second axis. However the separation is not distinct. }}{74}{figure.9.1}}
\FN@pp@footnotehinttrue 
\@writefile{lof}{\contentsline {figure}{\numberline {9.2}{\ignorespaces Hierarchical clustering with Average linkage for Grade4 and Control samples. Though there are two distinct clusters, there is an intermixing of groups too}}{75}{figure.9.2}}
\@setckpt{Chapter8/chapter8}{
\setcounter{page}{76}
\setcounter{equation}{19}
\setcounter{enumi}{3}
\setcounter{enumii}{0}
\setcounter{enumiii}{0}
\setcounter{enumiv}{0}
\setcounter{footnote}{0}
\setcounter{mpfootnote}{0}
\setcounter{part}{0}
\setcounter{chapter}{9}
\setcounter{section}{1}
\setcounter{subsection}{0}
\setcounter{subsubsection}{1}
\setcounter{paragraph}{0}
\setcounter{subparagraph}{0}
\setcounter{figure}{2}
\setcounter{table}{0}
\setcounter{pp@next@reset}{1}
\setcounter{@fnserial}{0}
\setcounter{NAT@ctr}{0}
\setcounter{Item}{34}
\setcounter{Hfootnote}{0}
\setcounter{bookmark@seq@number}{75}
\setcounter{parentequation}{0}
\setcounter{csvinputline}{0}
\setcounter{csvrow}{0}
\setcounter{csvcol}{0}
\setcounter{AM@survey}{0}
\setcounter{lstnumber}{1}
\setcounter{section@level}{3}
\setcounter{lstlisting}{0}
}
