\relax 
\FN@pp@footnotehinttrue 
\@writefile{toc}{\contentsline {chapter}{\numberline {4}NGS Pipeline}{14}{chapter.4}}
\@writefile{lof}{\addvspace {10\p@ }}
\@writefile{lot}{\addvspace {10\p@ }}
\citation{bwt}
\@writefile{toc}{\contentsline {subsection}{\numberline {4.0.2}Alignment}{15}{subsection.4.0.2}}
\@writefile{toc}{\contentsline {subsubsection}{\numberline {4.0.2.1}Burrows Wheeler Transform}{15}{subsubsection.4.0.2.1}}
\@writefile{lof}{\contentsline {figure}{\numberline {4.1}{\ignorespaces Performing BWT on 'banana\$'}}{16}{figure.4.1}}
\@writefile{toc}{\contentsline {subsection}{\numberline {4.0.3}SAM Files}{16}{subsection.4.0.3}}
\@writefile{toc}{\contentsline {section}{\numberline {4.1}Computational Requirements}{17}{section.4.1}}
\@writefile{toc}{\contentsline {section}{\numberline {4.2}Work Flow for Variant Calling}{17}{section.4.2}}
\citation{utexas}
\@writefile{lof}{\contentsline {figure}{\numberline {4.2}{\ignorespaces NGS Pipeline Work Flow}}{18}{figure.4.2}}
\@writefile{brf}{\backcite{utexas}{{18}{4.2}{figure.4.2}}}
\@writefile{toc}{\contentsline {section}{\numberline {4.3}BWA-PSSM : Position Specific Scoring Matrix Approach}{20}{section.4.3}}
\FN@pp@footnotehinttrue 
\@setckpt{Chapter3/chapter3}{
\setcounter{page}{22}
\setcounter{equation}{0}
\setcounter{enumi}{2}
\setcounter{enumii}{0}
\setcounter{enumiii}{0}
\setcounter{enumiv}{0}
\setcounter{footnote}{0}
\setcounter{mpfootnote}{0}
\setcounter{part}{0}
\setcounter{chapter}{4}
\setcounter{section}{3}
\setcounter{subsection}{0}
\setcounter{subsubsection}{0}
\setcounter{paragraph}{0}
\setcounter{subparagraph}{0}
\setcounter{figure}{2}
\setcounter{table}{0}
\setcounter{pp@next@reset}{1}
\setcounter{@fnserial}{0}
\setcounter{NAT@ctr}{0}
\setcounter{Item}{34}
\setcounter{Hfootnote}{0}
\setcounter{bookmark@seq@number}{25}
\setcounter{parentequation}{0}
\setcounter{lstnumber}{1}
\setcounter{section@level}{1}
\setcounter{lstlisting}{0}
}
