\relax 
\citation{avery}
\FN@pp@footnotehinttrue 
\@writefile{toc}{\contentsline {chapter}{\numberline {1}Introduction}{1}{chapter.1}}
\@writefile{lof}{\addvspace {10\p@ }}
\@writefile{lot}{\addvspace {10\p@ }}
\@writefile{brf}{\backcite{avery}{{1}{1}{chapter.1}}}
\@writefile{lof}{\contentsline {figure}{\numberline {1.1}{\ignorespaces Complementary strands of DNA}}{1}{figure.1.1}}
\newlabel{box:dnapair}{{1.1}{1}{Complementary strands of DNA\relax }{figure.1.1}{}}
\@writefile{lof}{\contentsline {figure}{\numberline {1.2}{\ignorespaces Chromosome,DNA and genes, \url  {http://www.bbc.co.uk/schools/gcsebitesize/science/add_aqa_pre_2011/celldivision/celldivision1.shtml}}}{2}{figure.1.2}}
\newlabel{fig:cellchrom}{{1.2}{2}{Chromosome,DNA and genes, \url {http://www.bbc.co.uk/schools/gcsebitesize/science/add_aqa_pre_2011/celldivision/celldivision1.shtml}\relax }{figure.1.2}{}}
\@writefile{toc}{\contentsline {section}{\numberline {1.1}DNA Sequencing}{2}{section.1.1}}
\citation{sanger}
\@writefile{toc}{\contentsline {subsection}{\numberline {1.1.1}Sanger Sequencing}{3}{subsection.1.1.1}}
\@writefile{brf}{\backcite{sanger}{{3}{1.1.1}{subsection.1.1.1}}}
\@writefile{lof}{\contentsline {figure}{\numberline {1.3}{\ignorespaces Nucleosides, \url  {http://www.uic.edu/classes/bios/bios100/lectures/dna.htm}}}{3}{figure.1.3}}
\newlabel{box:nucleoside}{{1.3}{3}{Nucleosides, \url {http://www.uic.edu/classes/bios/bios100/lectures/dna.htm}\relax }{figure.1.3}{}}
\@writefile{lof}{\contentsline {figure}{\numberline {1.4}{\ignorespaces ddNTP and dNTP \url  {http://www.uic.edu/classes/bios/bios100/lectures/techniques.htm}}}{4}{figure.1.4}}
\newlabel{box:ddNTP}{{1.4}{4}{ddNTP and dNTP \url {http://www.uic.edu/classes/bios/bios100/lectures/techniques.htm}\relax }{figure.1.4}{}}
\citation{firstgeneration}
\citation{shendure}
\citation{staden1979}
\@writefile{toc}{\contentsline {subsection}{\numberline {1.1.2}Next Generation Sequencing}{5}{subsection.1.1.2}}
\@writefile{brf}{\backcite{firstgeneration}{{5}{1.1.2}{subsection.1.1.2}}}
\@writefile{brf}{\backcite{shendure}{{5}{1.1.2}{subsection.1.1.2}}}
\@writefile{lof}{\contentsline {figure}{\numberline {1.5}{\ignorespaces Terminating chains with radio-labeled ddNTPs}}{6}{figure.1.5}}
\newlabel{fig:terminating}{{1.5}{6}{Terminating chains with radio-labeled ddNTPs\relax }{figure.1.5}{}}
\@writefile{lof}{\contentsline {figure}{\numberline {1.6}{\ignorespaces Autoradigram, Source: \url  {http://www.bio.davidson.edu/courses/molbio/molstudents/spring2003/obenrader/sanger_method_page.htm}}}{6}{figure.1.6}}
\newlabel{fig:radiogram}{{1.6}{6}{Autoradigram, Source: \url {http://www.bio.davidson.edu/courses/molbio/molstudents/spring2003/obenrader/sanger_method_page.htm}\relax }{figure.1.6}{}}
\citation{ewing1998}
\@writefile{brf}{\backcite{staden1979}{{7}{1.1.2}{subsection.1.1.2}}}
\@writefile{lof}{\contentsline {figure}{\numberline {1.7}{\ignorespaces Shotgun Sequencing , Source: \url  {http://www.scq.ubc.ca/genome-projects-uncovering-the-blueprints-of-biology/}}}{7}{figure.1.7}}
\newlabel{fig:shotgun}{{1.7}{7}{Shotgun Sequencing , Source: \url {http://www.scq.ubc.ca/genome-projects-uncovering-the-blueprints-of-biology/}\relax }{figure.1.7}{}}
\@writefile{toc}{\contentsline {section}{\numberline {1.2}NGS Data Formats}{8}{section.1.2}}
\@writefile{brf}{\backcite{ewing1998}{{8}{1.2}{section.1.2}}}
\@writefile{lof}{\contentsline {figure}{\numberline {1.8}{\ignorespaces FastQ format, Partially adapted from \url  {http://en.wikipedia.org/wiki/FASTQ_format}}}{8}{figure.1.8}}
\newlabel{box:fastq}{{1.8}{8}{FastQ format, Partially adapted from \url {http://en.wikipedia.org/wiki/FASTQ_format}\relax }{figure.1.8}{}}
\citation{vcf}
\@writefile{brf}{\backcite{vcf}{{9}{1.2}{figure.1.9}}}
\@writefile{toc}{\contentsline {section}{\numberline {1.3}Sequencing: Why?}{9}{section.1.3}}
\@writefile{lof}{\contentsline {figure}{\numberline {1.9}{\ignorespaces NGS Workflow,Adapted from \url  {http://cgf.nci.nih.gov/operations/bioinformatics.html}}}{10}{figure.1.9}}
\newlabel{fig:ngsworkflow}{{1.9}{10}{NGS Workflow,Adapted from \url {http://cgf.nci.nih.gov/operations/bioinformatics.html}\relax }{figure.1.9}{}}
\FN@pp@footnotehinttrue 
\@setckpt{Introduction/introduction}{
\setcounter{page}{12}
\setcounter{equation}{2}
\setcounter{enumi}{4}
\setcounter{enumii}{0}
\setcounter{enumiii}{0}
\setcounter{enumiv}{0}
\setcounter{footnote}{0}
\setcounter{mpfootnote}{0}
\setcounter{part}{0}
\setcounter{chapter}{1}
\setcounter{section}{3}
\setcounter{subsection}{0}
\setcounter{subsubsection}{0}
\setcounter{paragraph}{0}
\setcounter{subparagraph}{0}
\setcounter{figure}{9}
\setcounter{table}{0}
\setcounter{pp@next@reset}{1}
\setcounter{@fnserial}{0}
\setcounter{NAT@ctr}{0}
\setcounter{Item}{7}
\setcounter{Hfootnote}{0}
\setcounter{bookmark@seq@number}{8}
\setcounter{parentequation}{0}
\setcounter{csvinputline}{0}
\setcounter{csvrow}{0}
\setcounter{csvcol}{0}
\setcounter{AM@survey}{0}
\setcounter{lstnumber}{1}
\setcounter{section@level}{1}
\setcounter{lstlisting}{0}
}
