\relax 
\citation{yu2005}
\citation{meldrum2011}
\citation{ncbi}
\FN@pp@footnotehinttrue 
\@writefile{toc}{\contentsline {chapter}{\numberline {6}Detecting Viral Genomes in Cancer tumors}{37}{chapter.6}}
\@writefile{lof}{\addvspace {10\p@ }}
\@writefile{lot}{\addvspace {10\p@ }}
\@writefile{brf}{\backcite{yu2005}{{37}{6}{chapter.6}}}
\@writefile{brf}{\backcite{meldrum2011}{{37}{6}{section*.7}}}
\citation{ncbiblast}
\citation{ncbiblast}
\@writefile{brf}{\backcite{ncbi}{{38}{6}{Item.23}}}
\FN@pp@footnotehinttrue 
\@writefile{lof}{\contentsline {figure}{\numberline {6.1}{\ignorespaces Steps to detect viral genomes in human NGS data}}{39}{figure.6.1}}
\newlabel{box:virusblast}{{6.1}{39}{Steps to detect viral genomes in human NGS data\relax }{figure.6.1}{}}
\@writefile{lof}{\contentsline {figure}{\numberline {6.2}{\ignorespaces Reads unmapped to the human genome were aligned with custom built viral genome. All the reads mapping to this genome were then blasted. Some of the tissues showed an exact identity match between the read originally unaligned and the HPV16 genome sequence. Screenshots taken from NCBI BLAST \cite  {ncbiblast}}}{40}{figure.6.2}}
\@writefile{brf}{\backcite{ncbiblast}{{40}{6.2}{figure.6.2}}}
\newlabel{box:fasta}{{6.2}{40}{Reads unmapped to the human genome were aligned with custom built viral genome. All the reads mapping to this genome were then blasted. Some of the tissues showed an exact identity match between the read originally unaligned and the HPV16 genome sequence. Screenshots taken from NCBI BLAST \cite {ncbiblast}\relax }{figure.6.2}{}}
\@setckpt{Chapter5/chapter5}{
\setcounter{page}{41}
\setcounter{equation}{0}
\setcounter{enumi}{2}
\setcounter{enumii}{0}
\setcounter{enumiii}{0}
\setcounter{enumiv}{0}
\setcounter{footnote}{0}
\setcounter{mpfootnote}{0}
\setcounter{part}{0}
\setcounter{chapter}{6}
\setcounter{section}{0}
\setcounter{subsection}{0}
\setcounter{subsubsection}{0}
\setcounter{paragraph}{0}
\setcounter{subparagraph}{0}
\setcounter{figure}{2}
\setcounter{table}{0}
\setcounter{pp@next@reset}{1}
\setcounter{@fnserial}{0}
\setcounter{NAT@ctr}{0}
\setcounter{Item}{23}
\setcounter{Hfootnote}{0}
\setcounter{bookmark@seq@number}{40}
\setcounter{parentequation}{0}
\setcounter{csvinputline}{0}
\setcounter{csvrow}{0}
\setcounter{csvcol}{0}
\setcounter{AM@survey}{0}
\setcounter{lstnumber}{1}
\setcounter{section@level}{1}
\setcounter{lstlisting}{0}
}
