\relax 
\providecommand\HyperFirstAtBeginDocument{\AtBeginDocument}
\HyperFirstAtBeginDocument{\ifx\hyper@anchor\@undefined
\global\let\oldcontentsline\contentsline
\gdef\contentsline#1#2#3#4{\oldcontentsline{#1}{#2}{#3}}
\global\let\oldnewlabel\newlabel
\gdef\newlabel#1#2{\newlabelxx{#1}#2}
\gdef\newlabelxx#1#2#3#4#5#6{\oldnewlabel{#1}{{#2}{#3}}}
\AtEndDocument{\ifx\hyper@anchor\@undefined
\let\contentsline\oldcontentsline
\let\newlabel\oldnewlabel
\fi}
\fi}
\global\let\hyper@last\relax 
\gdef\HyperFirstAtBeginDocument#1{#1}
\providecommand\HyField@AuxAddToFields[1]{}
\@writefile{lof}{\contentsline {figure}{\numberline {1}{\ignorespaces BWA analysis pipeline in Galaxy}}{1}{figure.1}}
\@writefile{lof}{\contentsline {figure}{\numberline {2}{\ignorespaces Heatmap cmparing various tools TransFic, Condel, SIFT, Polyphen. }}{1}{figure.2}}
\@writefile{lof}{\contentsline {figure}{\numberline {3}{\ignorespaces Running all the workflows together}}{2}{figure.3}}
\@writefile{lof}{\contentsline {figure}{\numberline {4}{\ignorespaces ROC curve for BWA v/s BWA-PSSM mappings}}{2}{figure.4}}
