\relax 
\FN@pp@footnotehinttrue 
\@writefile{toc}{\contentsline {chapter}{Appendix 1: Analysis of GBM Grade4 samples vs Control}{87}{appendix*.27}}
\@writefile{lof}{\addvspace {10\p@ }}
\@writefile{lot}{\addvspace {10\p@ }}
\FN@pp@footnotehinttrue 
\@setckpt{Appendix/appendix1}{
\setcounter{page}{88}
\setcounter{equation}{0}
\setcounter{enumi}{3}
\setcounter{enumii}{0}
\setcounter{enumiii}{0}
\setcounter{enumiv}{0}
\setcounter{footnote}{0}
\setcounter{mpfootnote}{0}
\setcounter{part}{0}
\setcounter{chapter}{0}
\setcounter{section}{0}
\setcounter{subsection}{2}
\setcounter{subsubsection}{0}
\setcounter{paragraph}{0}
\setcounter{subparagraph}{0}
\setcounter{figure}{0}
\setcounter{table}{0}
\setcounter{pp@next@reset}{1}
\setcounter{@fnserial}{0}
\setcounter{NAT@ctr}{0}
\setcounter{Item}{34}
\setcounter{Hfootnote}{0}
\setcounter{bookmark@seq@number}{88}
\setcounter{parentequation}{0}
\setcounter{csvinputline}{0}
\setcounter{csvrow}{0}
\setcounter{csvcol}{0}
\setcounter{AM@survey}{0}
\setcounter{lstnumber}{1}
\setcounter{section@level}{2}
\setcounter{lstlisting}{0}
}
