\relax 
\citation{bioinfo}
\citation{wikiseq}
\FN@pp@footnotehinttrue 
\@writefile{toc}{\contentsline {chapter}{\numberline {2}Introduction}{11}{chapter.2}}
\@writefile{lof}{\addvspace {10\p@ }}
\@writefile{lot}{\addvspace {10\p@ }}
\@writefile{toc}{\contentsline {section}{\numberline {2.1}Cancer}{11}{section.2.1}}
\@writefile{toc}{\contentsline {subsection}{\numberline {2.1.1}Maxman-Gilbert Sequencing}{11}{subsection.2.1.1}}
\@writefile{toc}{\contentsline {subsection}{\numberline {2.1.2}Chain Termination Method or Sanger Sequencing}{11}{subsection.2.1.2}}
\@writefile{toc}{\contentsline {subsubsection}{\numberline {2.1.2.1}Automated Sanger Sequencing}{13}{subsubsection.2.1.2.1}}
\citation{illumina}
\@writefile{lof}{\contentsline {figure}{\numberline {2.1}{\ignorespaces DNA sequence as seen on the 4 lanes of a polyacrimide gel}}{14}{figure.2.1}}
\@writefile{toc}{\contentsline {section}{\numberline {2.2}Next Generation Sequencing}{14}{section.2.2}}
\@writefile{toc}{\contentsline {section}{\numberline {2.3}Sequencing : Why ?}{14}{section.2.3}}
\FN@pp@footnotehinttrue 
\@setckpt{Chapter1/chapter1}{
\setcounter{page}{16}
\setcounter{equation}{0}
\setcounter{enumi}{2}
\setcounter{enumii}{0}
\setcounter{enumiii}{0}
\setcounter{enumiv}{0}
\setcounter{footnote}{0}
\setcounter{mpfootnote}{0}
\setcounter{part}{0}
\setcounter{chapter}{2}
\setcounter{section}{3}
\setcounter{subsection}{0}
\setcounter{subsubsection}{1}
\setcounter{paragraph}{0}
\setcounter{subparagraph}{0}
\setcounter{figure}{1}
\setcounter{table}{0}
\setcounter{pp@next@reset}{1}
\setcounter{@fnserial}{0}
\setcounter{NAT@ctr}{0}
\setcounter{Item}{9}
\setcounter{Hfootnote}{0}
\setcounter{bookmark@seq@number}{14}
\setcounter{parentequation}{0}
\setcounter{csvinputline}{0}
\setcounter{csvrow}{0}
\setcounter{csvcol}{0}
\setcounter{AM@survey}{0}
\setcounter{lstnumber}{1}
\setcounter{section@level}{1}
\setcounter{lstlisting}{0}
}
