\relax 
\citation{forbes2010cosmic}
\FN@pp@footnotehinttrue 
\@writefile{toc}{\contentsline {chapter}{\numberline {4}Galaxy Visualisation Toolbox: A Case study}{29}{chapter.4}}
\@writefile{lof}{\addvspace {10\p@ }}
\@writefile{lot}{\addvspace {10\p@ }}
\@writefile{toc}{\contentsline {section}{\numberline {4.1}Data and Method}{29}{section.4.1}}
\@writefile{brf}{\backcite{forbes2010cosmic}{{29}{4.1}{section.4.1}}}
\citation{gnad2013assessment}
\@writefile{lof}{\contentsline {figure}{\numberline {4.1}{\ignorespaces A Galaxy based workflow to process VCF files. The VCF files are converted to transFIC-friendly format}}{30}{figure.4.1}}
\newlabel{workflow:transfic}{{4.1}{30}{A Galaxy based workflow to process VCF files. The VCF files are converted to transFIC-friendly format\relax }{figure.4.1}{}}
\@writefile{brf}{\backcite{gnad2013assessment}{{30}{4.1}{figure.4.1}}}
\@writefile{lof}{\contentsline {figure}{\numberline {4.2}{\ignorespaces Heatmap representing the outputs of various tools. The framework is flexible enough to allow visualising output of more tools. The rows represent "chromosome:position" format. Darker shades of red represent damaging/ high functional impact mutations, lighter represents benign/low functional impact}}{31}{figure.4.2}}
\newlabel{fig:heatmap}{{4.2}{31}{Heatmap representing the outputs of various tools. The framework is flexible enough to allow visualising output of more tools. The rows represent "chromosome:position" format. Darker shades of red represent damaging/ high functional impact mutations, lighter represents benign/low functional impact\relax }{figure.4.2}{}}
\citation{gomez2013biojs}
\@writefile{lof}{\contentsline {figure}{\numberline {4.3}{\ignorespaces Heatmap Zoomed}}{32}{figure.4.3}}
\@writefile{brf}{\backcite{gomez2013biojs}{{32}{4.1}{figure.4.3}}}
\FN@pp@footnotehinttrue 
\@setckpt{Chapter3a/chapter3a}{
\setcounter{page}{33}
\setcounter{equation}{1}
\setcounter{enumi}{9}
\setcounter{enumii}{0}
\setcounter{enumiii}{0}
\setcounter{enumiv}{0}
\setcounter{footnote}{0}
\setcounter{mpfootnote}{0}
\setcounter{part}{0}
\setcounter{chapter}{4}
\setcounter{section}{1}
\setcounter{subsection}{0}
\setcounter{subsubsection}{0}
\setcounter{paragraph}{0}
\setcounter{subparagraph}{0}
\setcounter{figure}{3}
\setcounter{table}{0}
\setcounter{pp@next@reset}{1}
\setcounter{@fnserial}{0}
\setcounter{NAT@ctr}{0}
\setcounter{Item}{19}
\setcounter{Hfootnote}{0}
\setcounter{bookmark@seq@number}{38}
\setcounter{parentequation}{0}
\setcounter{csvinputline}{0}
\setcounter{csvrow}{0}
\setcounter{csvcol}{0}
\setcounter{AM@survey}{0}
\setcounter{lstnumber}{1}
\setcounter{section@level}{1}
\setcounter{lstlisting}{0}
}
