\relax 
\providecommand\HyperFirstAtBeginDocument{\AtBeginDocument}
\HyperFirstAtBeginDocument{\ifx\hyper@anchor\@undefined
\global\let\oldcontentsline\contentsline
\gdef\contentsline#1#2#3#4{\oldcontentsline{#1}{#2}{#3}}
\global\let\oldnewlabel\newlabel
\gdef\newlabel#1#2{\newlabelxx{#1}#2}
\gdef\newlabelxx#1#2#3#4#5#6{\oldnewlabel{#1}{{#2}{#3}}}
\AtEndDocument{\ifx\hyper@anchor\@undefined
\let\contentsline\oldcontentsline
\let\newlabel\oldnewlabel
\fi}
\fi}
\global\let\hyper@last\relax 
\gdef\HyperFirstAtBeginDocument#1{#1}
\providecommand\HyField@AuxAddToFields[1]{}
\@writefile{toc}{\beamer@endinputifotherversion {3.10pt}}
\@writefile{nav}{\beamer@endinputifotherversion {3.10pt}}
\@writefile{toc}{\beamer@sectionintoc {1}{\scshape  Introduction}{1}{0}{1}}
\@writefile{nav}{\headcommand {\sectionentry {1}{\scshape  Introduction}{1}{\scshape  Introduction}{0}}}
\@writefile{nav}{\headcommand {\beamer@sectionpages {1}{0}}}
\@writefile{nav}{\headcommand {\beamer@subsectionpages {1}{0}}}
\@writefile{nav}{\headcommand {\slideentry {1}{0}{1}{1/1}{}{0}}}
\@writefile{nav}{\headcommand {\beamer@framepages {1}{1}}}
\@writefile{nav}{\headcommand {\slideentry {1}{0}{2}{2/2}{}{0}}}
\@writefile{nav}{\headcommand {\beamer@framepages {2}{2}}}
\@writefile{toc}{\beamer@subsectionintoc {1}{1}{Objective}{3}{0}{1}}
\@writefile{nav}{\headcommand {\beamer@subsectionentry {0}{1}{1}{3}{Objective}}\headcommand {\beamer@subsectionpages {1}{2}}}
\@writefile{nav}{\headcommand {\slideentry {1}{1}{1}{3/15}{Objective}{0}}}
\@writefile{nav}{\headcommand {\beamer@framepages {3}{15}}}
\@writefile{toc}{\beamer@sectionintoc {2}{\scshape  Significant Mutations}{16}{0}{2}}
\@writefile{nav}{\headcommand {\sectionentry {2}{\scshape  Significant Mutations}{16}{\scshape  Significant Mutations}{0}}}
\@writefile{nav}{\headcommand {\beamer@sectionpages {1}{15}}}
\@writefile{nav}{\headcommand {\beamer@subsectionpages {3}{15}}}
\@writefile{toc}{\beamer@subsectionintoc {2}{1}{Next Generation Sequencing}{16}{0}{2}}
\@writefile{nav}{\headcommand {\beamer@subsectionentry {0}{2}{1}{16}{Next Generation Sequencing}}\headcommand {\beamer@subsectionpages {16}{15}}}
\@writefile{nav}{\headcommand {\slideentry {2}{1}{1}{16/16}{Next Generation Sequencing}{0}}}
\@writefile{nav}{\headcommand {\beamer@framepages {16}{16}}}
\@writefile{nav}{\headcommand {\slideentry {2}{1}{2}{17/17}{Next Generation Sequencing}{0}}}
\@writefile{nav}{\headcommand {\beamer@framepages {17}{17}}}
\@writefile{nav}{\headcommand {\slideentry {2}{1}{3}{18/18}{Next Generation Sequencing}{0}}}
\@writefile{nav}{\headcommand {\beamer@framepages {18}{18}}}
\@writefile{nav}{\headcommand {\slideentry {2}{1}{4}{19/19}{Next Generation Sequencing}{0}}}
\@writefile{nav}{\headcommand {\beamer@framepages {19}{19}}}
\@writefile{nav}{\headcommand {\slideentry {2}{1}{5}{20/22}{Next Generation Sequencing}{0}}}
\@writefile{nav}{\headcommand {\beamer@framepages {20}{22}}}
\@writefile{nav}{\headcommand {\slideentry {2}{1}{6}{23/25}{Next Generation Sequencing}{0}}}
\@writefile{nav}{\headcommand {\beamer@framepages {23}{25}}}
\@writefile{nav}{\headcommand {\slideentry {2}{1}{7}{26/30}{Next Generation Sequencing}{0}}}
\@writefile{nav}{\headcommand {\beamer@framepages {26}{30}}}
\@writefile{toc}{\beamer@subsectionintoc {2}{2}{Motivation}{31}{0}{2}}
\@writefile{nav}{\headcommand {\beamer@subsectionentry {0}{2}{2}{31}{Motivation}}\headcommand {\beamer@subsectionpages {16}{30}}}
\@writefile{nav}{\headcommand {\slideentry {2}{2}{1}{31/31}{Motivation}{0}}}
\@writefile{nav}{\headcommand {\beamer@framepages {31}{31}}}
\@writefile{nav}{\headcommand {\slideentry {2}{2}{2}{32/34}{Motivation}{0}}}
\@writefile{nav}{\headcommand {\beamer@framepages {32}{34}}}
\@writefile{nav}{\headcommand {\slideentry {2}{2}{3}{35/38}{Motivation}{0}}}
\@writefile{nav}{\headcommand {\beamer@framepages {35}{38}}}
\@writefile{toc}{\beamer@subsectionintoc {2}{3}{Computational Methods for Driver Detection}{39}{0}{2}}
\@writefile{nav}{\headcommand {\beamer@subsectionentry {0}{2}{3}{39}{Computational Methods for Driver Detection}}\headcommand {\beamer@subsectionpages {31}{38}}}
\@writefile{nav}{\headcommand {\slideentry {2}{3}{1}{39/39}{Computational Methods for Driver Detection}{0}}}
\@writefile{nav}{\headcommand {\beamer@framepages {39}{39}}}
\@writefile{nav}{\headcommand {\slideentry {2}{3}{1}{39/40}{Computational Methods for Driver Detection}{0}}}
\@writefile{nav}{\headcommand {\beamer@framepages {39}{40}}}
\citation{carter2009}
\@writefile{nav}{\headcommand {\slideentry {2}{3}{2}{41/41}{Computational Methods for Driver Detection}{0}}}
\@writefile{nav}{\headcommand {\beamer@framepages {41}{41}}}
\@writefile{nav}{\headcommand {\slideentry {2}{3}{2}{41/42}{Computational Methods for Driver Detection}{0}}}
\@writefile{nav}{\headcommand {\beamer@framepages {41}{42}}}
\@writefile{nav}{\headcommand {\slideentry {2}{3}{3}{43/43}{Computational Methods for Driver Detection}{0}}}
\@writefile{nav}{\headcommand {\beamer@framepages {43}{43}}}
\@writefile{nav}{\headcommand {\slideentry {2}{3}{4}{44/44}{Computational Methods for Driver Detection}{0}}}
\@writefile{nav}{\headcommand {\beamer@framepages {44}{44}}}
\@writefile{nav}{\headcommand {\slideentry {2}{3}{5}{45/45}{Computational Methods for Driver Detection}{0}}}
\@writefile{nav}{\headcommand {\beamer@framepages {45}{45}}}
\@writefile{nav}{\headcommand {\slideentry {2}{3}{6}{46/46}{Computational Methods for Driver Detection}{0}}}
\@writefile{nav}{\headcommand {\beamer@framepages {46}{46}}}
\@writefile{nav}{\headcommand {\slideentry {2}{3}{6}{46/47}{Computational Methods for Driver Detection}{0}}}
\@writefile{nav}{\headcommand {\beamer@framepages {46}{47}}}
\@writefile{nav}{\headcommand {\slideentry {2}{3}{7}{48/48}{Computational Methods for Driver Detection}{0}}}
\@writefile{nav}{\headcommand {\beamer@framepages {48}{48}}}
\@writefile{nav}{\headcommand {\slideentry {2}{3}{8}{49/49}{Computational Methods for Driver Detection}{0}}}
\@writefile{nav}{\headcommand {\beamer@framepages {49}{49}}}
\@writefile{nav}{\headcommand {\slideentry {2}{3}{9}{50/50}{Computational Methods for Driver Detection}{0}}}
\@writefile{nav}{\headcommand {\beamer@framepages {50}{50}}}
\@writefile{nav}{\headcommand {\slideentry {2}{3}{10}{51/51}{Computational Methods for Driver Detection}{0}}}
\@writefile{nav}{\headcommand {\beamer@framepages {51}{51}}}
\@writefile{toc}{\beamer@sectionintoc {3}{\scshape  Viral Genome Detecion}{52}{0}{3}}
\@writefile{nav}{\headcommand {\sectionentry {3}{\scshape  Viral Genome Detecion}{52}{\scshape  Viral Genome Detecion}{0}}}
\@writefile{nav}{\headcommand {\beamer@sectionpages {16}{51}}}
\@writefile{nav}{\headcommand {\beamer@subsectionpages {39}{51}}}
\@writefile{nav}{\headcommand {\slideentry {3}{0}{11}{52/52}{}{0}}}
\@writefile{nav}{\headcommand {\beamer@framepages {52}{52}}}
\@writefile{toc}{\beamer@subsectionintoc {3}{1}{Workflow}{53}{0}{3}}
\@writefile{nav}{\headcommand {\beamer@subsectionentry {0}{3}{1}{53}{Workflow}}\headcommand {\beamer@subsectionpages {52}{52}}}
\@writefile{nav}{\headcommand {\slideentry {3}{1}{1}{53/59}{Workflow}{0}}}
\@writefile{nav}{\headcommand {\beamer@framepages {53}{59}}}
\@writefile{nav}{\headcommand {\slideentry {3}{1}{2}{60/60}{Workflow}{0}}}
\@writefile{nav}{\headcommand {\beamer@framepages {60}{60}}}
\@writefile{nav}{\headcommand {\slideentry {3}{1}{3}{61/61}{Workflow}{0}}}
\@writefile{nav}{\headcommand {\beamer@framepages {61}{61}}}
\@writefile{toc}{\beamer@sectionintoc {4}{\scshape  Reproducibility}{62}{0}{4}}
\@writefile{nav}{\headcommand {\sectionentry {4}{\scshape  Reproducibility}{62}{\scshape  Reproducibility}{0}}}
\@writefile{nav}{\headcommand {\beamer@sectionpages {52}{61}}}
\@writefile{nav}{\headcommand {\beamer@subsectionpages {53}{61}}}
\@writefile{toc}{\beamer@subsectionintoc {4}{1}{Reproducibility}{62}{0}{4}}
\@writefile{nav}{\headcommand {\beamer@subsectionentry {0}{4}{1}{62}{Reproducibility}}\headcommand {\beamer@subsectionpages {62}{61}}}
\@writefile{nav}{\headcommand {\slideentry {4}{1}{1}{62/62}{Reproducibility}{0}}}
\@writefile{nav}{\headcommand {\beamer@framepages {62}{62}}}
\@writefile{toc}{\beamer@sectionintoc {5}{BWA v/s BWA-PSSM}{63}{0}{5}}
\@writefile{nav}{\headcommand {\sectionentry {5}{BWA v/s BWA-PSSM}{63}{BWA v/s BWA-PSSM}{0}}}
\@writefile{nav}{\headcommand {\beamer@sectionpages {62}{62}}}
\@writefile{nav}{\headcommand {\beamer@subsectionpages {62}{62}}}
\@writefile{nav}{\headcommand {\slideentry {5}{0}{2}{63/63}{}{0}}}
\@writefile{nav}{\headcommand {\beamer@framepages {63}{63}}}
\@writefile{nav}{\headcommand {\slideentry {5}{0}{2}{63/64}{}{0}}}
\@writefile{nav}{\headcommand {\beamer@framepages {63}{64}}}
\@writefile{nav}{\headcommand {\slideentry {5}{0}{2}{63/65}{}{0}}}
\@writefile{nav}{\headcommand {\beamer@framepages {63}{65}}}
\@writefile{toc}{\beamer@sectionintoc {6}{\scshape  Conclusions}{66}{0}{6}}
\@writefile{nav}{\headcommand {\sectionentry {6}{\scshape  Conclusions}{66}{\scshape  Conclusions}{0}}}
\@writefile{nav}{\headcommand {\beamer@sectionpages {63}{65}}}
\@writefile{nav}{\headcommand {\beamer@subsectionpages {63}{65}}}
\@writefile{toc}{\beamer@subsectionintoc {6}{1}{Wrapping up}{66}{0}{6}}
\@writefile{nav}{\headcommand {\beamer@subsectionentry {0}{6}{1}{66}{Wrapping up}}\headcommand {\beamer@subsectionpages {66}{65}}}
\@writefile{nav}{\headcommand {\slideentry {6}{1}{1}{66/66}{Wrapping up}{0}}}
\@writefile{nav}{\headcommand {\beamer@framepages {66}{66}}}
\@writefile{nav}{\headcommand {\slideentry {6}{1}{2}{67/67}{Wrapping up}{0}}}
\@writefile{nav}{\headcommand {\beamer@framepages {67}{67}}}
\bibdata{../References/references.bib}
\bibcite{carter2009}{\hyperlink {beamerbibcarter2009}{1}}
\@writefile{nav}{\headcommand {\slideentry {6}{1}{3}{68/68}{Wrapping up}{0}}}
\@writefile{nav}{\headcommand {\beamer@framepages {68}{68}}}
\@writefile{nav}{\headcommand {\beamer@partpages {1}{68}}}
\@writefile{nav}{\headcommand {\beamer@subsectionpages {66}{68}}}
\@writefile{nav}{\headcommand {\beamer@sectionpages {66}{68}}}
\@writefile{nav}{\headcommand {\beamer@documentpages {68}}}
\@writefile{nav}{\headcommand {\def \inserttotalframenumber {37}}}
